%YAML 1.1
%TAG !u! tag:unity3d.com,2011:
--- !u!74 &7400000
AnimationClip:
  m_ObjectHideFlags: 0
  m_CorrespondingSourceObject: {fileID: 0}
  m_PrefabInstance: {fileID: 0}
  m_PrefabAsset: {fileID: 0}
  m_Name: Anim_Prisoner_GetHit_R
  serializedVersion: 6
  m_Legacy: 0
  m_Compressed: 0
  m_UseHighQualityCurve: 1
  m_RotationCurves: []
  m_CompressedRotationCurves: []
  m_EulerCurves: []
  m_PositionCurves: []
  m_ScaleCurves: []
  m_FloatCurves: []
  m_PPtrCurves:
  - curve:
    - time: 0
      value: {fileID: 21300000, guid: 20aa7a6973c1c4040b8ccbcfa55ad3e7, type: 3}
    - time: 0.083333336
      value: {fileID: 21300000, guid: 5a3f01ef4dacdb440867cf7e607bd6cd, type: 3}
    - time: 0.16666667
      value: {fileID: 21300000, guid: ba98ad212b7a22e4f8fad12dde1b0ada, type: 3}
    - time: 0.25
      value: {fileID: 21300000, guid: a6a197686d29c814e98970fc7aabc4d6, type: 3}
    - time: 0.33333334
      value: {fileID: 21300000, guid: a906a81ce94b61047977a73efe0861ec, type: 3}
    - time: 0.41666666
      value: {fileID: 21300000, guid: e782b7b5f3c73564588f3b337ffc835d, type: 3}
    - time: 0.5
      value: {fileID: 21300000, guid: 526c874d35fa4ae4ba928bc82da656ae, type: 3}
    attribute: m_Sprite
    path: 
    classID: 212
    script: {fileID: 0}
  m_SampleRate: 12
  m_WrapMode: 0
  m_Bounds:
    m_Center: {x: 0, y: 0, z: 0}
    m_Extent: {x: 0, y: 0, z: 0}
  m_ClipBindingConstant:
    genericBindings:
    - serializedVersion: 2
      path: 0
      attribute: 0
      script: {fileID: 0}
      typeID: 212
      customType: 23
      isPPtrCurve: 1
    pptrCurveMapping:
    - {fileID: 21300000, guid: 20aa7a6973c1c4040b8ccbcfa55ad3e7, type: 3}
    - {fileID: 21300000, guid: 5a3f01ef4dacdb440867cf7e607bd6cd, type: 3}
    - {fileID: 21300000, guid: ba98ad212b7a22e4f8fad12dde1b0ada, type: 3}
    - {fileID: 21300000, guid: a6a197686d29c814e98970fc7aabc4d6, type: 3}
    - {fileID: 21300000, guid: a906a81ce94b61047977a73efe0861ec, type: 3}
    - {fileID: 21300000, guid: e782b7b5f3c73564588f3b337ffc835d, type: 3}
    - {fileID: 21300000, guid: 526c874d35fa4ae4ba928bc82da656ae, type: 3}
  m_AnimationClipSettings:
    serializedVersion: 2
    m_AdditiveReferencePoseClip: {fileID: 0}
    m_AdditiveReferencePoseTime: 0
    m_StartTime: 0
    m_StopTime: 0.5833333
    m_OrientationOffsetY: 0
    m_Level: 0
    m_CycleOffset: 0
    m_HasAdditiveReferencePose: 0
    m_LoopTime: 1
    m_LoopBlend: 0
    m_LoopBlendOrientation: 0
    m_LoopBlendPositionY: 0
    m_LoopBlendPositionXZ: 0
    m_KeepOriginalOrientation: 0
    m_KeepOriginalPositionY: 1
    m_KeepOriginalPositionXZ: 0
    m_HeightFromFeet: 0
    m_Mirror: 0
  m_EditorCurves: []
  m_EulerEditorCurves: []
  m_HasGenericRootTransform: 0
  m_HasMotionFloatCurves: 0
  m_Events: []
