%YAML 1.1
%TAG !u! tag:unity3d.com,2011:
--- !u!74 &7400000
AnimationClip:
  m_ObjectHideFlags: 0
  m_CorrespondingSourceObject: {fileID: 0}
  m_PrefabInstance: {fileID: 0}
  m_PrefabAsset: {fileID: 0}
  m_Name: Anim_PLT_Prisoner_Idle
  serializedVersion: 6
  m_Legacy: 0
  m_Compressed: 0
  m_UseHighQualityCurve: 1
  m_RotationCurves: []
  m_CompressedRotationCurves: []
  m_EulerCurves: []
  m_PositionCurves: []
  m_ScaleCurves: []
  m_FloatCurves: []
  m_PPtrCurves:
  - curve:
    - time: 0
      value: {fileID: 21300000, guid: 096187ff12d3b344ea2a6dfcaf2549af, type: 3}
    - time: 0.07692308
      value: {fileID: 21300000, guid: a90b604058d7bf44a874c626c7b9e5cd, type: 3}
    - time: 0.15384616
      value: {fileID: 21300000, guid: 8eeb4dd165e12eb4684d17e0ed75f88a, type: 3}
    - time: 0.23076923
      value: {fileID: 21300000, guid: 45b902f34281d5643848cc35b1b549cc, type: 3}
    - time: 0.30769232
      value: {fileID: 21300000, guid: 0db4bd18bb138fa48a823655c2ae0ffd, type: 3}
    - time: 0.3846154
      value: {fileID: 21300000, guid: 113492432d6ea3140b94a46553df6c80, type: 3}
    - time: 0.46153846
      value: {fileID: 21300000, guid: 207af6c1ad4f2bf468c417cf0f98d047, type: 3}
    - time: 0.53846157
      value: {fileID: 21300000, guid: e2cbb57abb598ad40bac8af34fb0a31c, type: 3}
    - time: 0.61538464
      value: {fileID: 21300000, guid: 04af9ad68e87eb7489505da4a9b6e8a4, type: 3}
    - time: 0.6923077
      value: {fileID: 21300000, guid: bb633e990516f2a47a34cae1745fd9bd, type: 3}
    - time: 0.7692308
      value: {fileID: 21300000, guid: 135bbf19f93e2054fae8f7593fb65e14, type: 3}
    - time: 0.84615386
      value: {fileID: 21300000, guid: 6c0884c20eb416e409c4f96cd09c1ba9, type: 3}
    - time: 0.9230769
      value: {fileID: 21300000, guid: 61e8a6e2b799adc4493c45dd4fbcc098, type: 3}
    - time: 1
      value: {fileID: 21300000, guid: e7c6a507264eb2c4ca3a6966aea7d471, type: 3}
    - time: 1.0769231
      value: {fileID: 21300000, guid: d20b04094f2628d4e8217dbdf6071c76, type: 3}
    attribute: m_Sprite
    path: 
    classID: 212
    script: {fileID: 0}
  m_SampleRate: 13
  m_WrapMode: 0
  m_Bounds:
    m_Center: {x: 0, y: 0, z: 0}
    m_Extent: {x: 0, y: 0, z: 0}
  m_ClipBindingConstant:
    genericBindings:
    - serializedVersion: 2
      path: 0
      attribute: 0
      script: {fileID: 0}
      typeID: 212
      customType: 23
      isPPtrCurve: 1
    pptrCurveMapping:
    - {fileID: 21300000, guid: 096187ff12d3b344ea2a6dfcaf2549af, type: 3}
    - {fileID: 21300000, guid: a90b604058d7bf44a874c626c7b9e5cd, type: 3}
    - {fileID: 21300000, guid: 8eeb4dd165e12eb4684d17e0ed75f88a, type: 3}
    - {fileID: 21300000, guid: 45b902f34281d5643848cc35b1b549cc, type: 3}
    - {fileID: 21300000, guid: 0db4bd18bb138fa48a823655c2ae0ffd, type: 3}
    - {fileID: 21300000, guid: 113492432d6ea3140b94a46553df6c80, type: 3}
    - {fileID: 21300000, guid: 207af6c1ad4f2bf468c417cf0f98d047, type: 3}
    - {fileID: 21300000, guid: e2cbb57abb598ad40bac8af34fb0a31c, type: 3}
    - {fileID: 21300000, guid: 04af9ad68e87eb7489505da4a9b6e8a4, type: 3}
    - {fileID: 21300000, guid: bb633e990516f2a47a34cae1745fd9bd, type: 3}
    - {fileID: 21300000, guid: 135bbf19f93e2054fae8f7593fb65e14, type: 3}
    - {fileID: 21300000, guid: 6c0884c20eb416e409c4f96cd09c1ba9, type: 3}
    - {fileID: 21300000, guid: 61e8a6e2b799adc4493c45dd4fbcc098, type: 3}
    - {fileID: 21300000, guid: e7c6a507264eb2c4ca3a6966aea7d471, type: 3}
    - {fileID: 21300000, guid: d20b04094f2628d4e8217dbdf6071c76, type: 3}
  m_AnimationClipSettings:
    serializedVersion: 2
    m_AdditiveReferencePoseClip: {fileID: 0}
    m_AdditiveReferencePoseTime: 0
    m_StartTime: 0
    m_StopTime: 1.1538463
    m_OrientationOffsetY: 0
    m_Level: 0
    m_CycleOffset: 0
    m_HasAdditiveReferencePose: 0
    m_LoopTime: 1
    m_LoopBlend: 0
    m_LoopBlendOrientation: 0
    m_LoopBlendPositionY: 0
    m_LoopBlendPositionXZ: 0
    m_KeepOriginalOrientation: 0
    m_KeepOriginalPositionY: 1
    m_KeepOriginalPositionXZ: 0
    m_HeightFromFeet: 0
    m_Mirror: 0
  m_EditorCurves: []
  m_EulerEditorCurves: []
  m_HasGenericRootTransform: 0
  m_HasMotionFloatCurves: 0
  m_Events: []
