%YAML 1.1
%TAG !u! tag:unity3d.com,2011:
--- !u!74 &7400000
AnimationClip:
  m_ObjectHideFlags: 0
  m_CorrespondingSourceObject: {fileID: 0}
  m_PrefabInstance: {fileID: 0}
  m_PrefabAsset: {fileID: 0}
  m_Name: Anim_PLT_Prisoner_Death
  serializedVersion: 6
  m_Legacy: 0
  m_Compressed: 0
  m_UseHighQualityCurve: 1
  m_RotationCurves: []
  m_CompressedRotationCurves: []
  m_EulerCurves: []
  m_PositionCurves: []
  m_ScaleCurves: []
  m_FloatCurves: []
  m_PPtrCurves:
  - curve:
    - time: 0
      value: {fileID: 21300000, guid: aaa76b8fcacb0d14789cbd20585767d0, type: 3}
    - time: 0.07692308
      value: {fileID: 21300000, guid: 89c3bb4ed54f8454c9c15b7ba43aa83c, type: 3}
    - time: 0.15384616
      value: {fileID: 21300000, guid: f01a24991a6470147baa9c1a0965895c, type: 3}
    - time: 0.23076923
      value: {fileID: 21300000, guid: 05ac2acd403caeb418ed1d7db3ed903f, type: 3}
    - time: 0.30769232
      value: {fileID: 21300000, guid: 7dc019dbd035bf742b42a5cc3adbd00c, type: 3}
    - time: 0.3846154
      value: {fileID: 21300000, guid: 6a6afa1634f22af4aa67bb6f9e1e1972, type: 3}
    - time: 0.46153846
      value: {fileID: 21300000, guid: 99ff80287fb16214bab81c3acf012de0, type: 3}
    - time: 0.53846157
      value: {fileID: 21300000, guid: 7f89080779f12ca4d817b0b498d0969e, type: 3}
    - time: 0.61538464
      value: {fileID: 21300000, guid: f62e3830082fbb645b1229ef9b758191, type: 3}
    - time: 0.6923077
      value: {fileID: 21300000, guid: 101e34fc2ef198b49a26d5be39d129e1, type: 3}
    - time: 0.7692308
      value: {fileID: 21300000, guid: db82ec2e7d79d6a4999b7dad042775f2, type: 3}
    - time: 0.84615386
      value: {fileID: 21300000, guid: a3c6f758bd23f0d409ce76f8f3f3f836, type: 3}
    - time: 0.9230769
      value: {fileID: 21300000, guid: 098798ef37b7b634bbcf1b16f9ad2ba4, type: 3}
    - time: 1
      value: {fileID: 21300000, guid: 9bc2326fd27dc7248be24d96c409d06f, type: 3}
    attribute: m_Sprite
    path: 
    classID: 212
    script: {fileID: 0}
  m_SampleRate: 13
  m_WrapMode: 0
  m_Bounds:
    m_Center: {x: 0, y: 0, z: 0}
    m_Extent: {x: 0, y: 0, z: 0}
  m_ClipBindingConstant:
    genericBindings:
    - serializedVersion: 2
      path: 0
      attribute: 0
      script: {fileID: 0}
      typeID: 212
      customType: 23
      isPPtrCurve: 1
    pptrCurveMapping:
    - {fileID: 21300000, guid: aaa76b8fcacb0d14789cbd20585767d0, type: 3}
    - {fileID: 21300000, guid: 89c3bb4ed54f8454c9c15b7ba43aa83c, type: 3}
    - {fileID: 21300000, guid: f01a24991a6470147baa9c1a0965895c, type: 3}
    - {fileID: 21300000, guid: 05ac2acd403caeb418ed1d7db3ed903f, type: 3}
    - {fileID: 21300000, guid: 7dc019dbd035bf742b42a5cc3adbd00c, type: 3}
    - {fileID: 21300000, guid: 6a6afa1634f22af4aa67bb6f9e1e1972, type: 3}
    - {fileID: 21300000, guid: 99ff80287fb16214bab81c3acf012de0, type: 3}
    - {fileID: 21300000, guid: 7f89080779f12ca4d817b0b498d0969e, type: 3}
    - {fileID: 21300000, guid: f62e3830082fbb645b1229ef9b758191, type: 3}
    - {fileID: 21300000, guid: 101e34fc2ef198b49a26d5be39d129e1, type: 3}
    - {fileID: 21300000, guid: db82ec2e7d79d6a4999b7dad042775f2, type: 3}
    - {fileID: 21300000, guid: a3c6f758bd23f0d409ce76f8f3f3f836, type: 3}
    - {fileID: 21300000, guid: 098798ef37b7b634bbcf1b16f9ad2ba4, type: 3}
    - {fileID: 21300000, guid: 9bc2326fd27dc7248be24d96c409d06f, type: 3}
  m_AnimationClipSettings:
    serializedVersion: 2
    m_AdditiveReferencePoseClip: {fileID: 0}
    m_AdditiveReferencePoseTime: 0
    m_StartTime: 0
    m_StopTime: 1.0769231
    m_OrientationOffsetY: 0
    m_Level: 0
    m_CycleOffset: 0
    m_HasAdditiveReferencePose: 0
    m_LoopTime: 1
    m_LoopBlend: 0
    m_LoopBlendOrientation: 0
    m_LoopBlendPositionY: 0
    m_LoopBlendPositionXZ: 0
    m_KeepOriginalOrientation: 0
    m_KeepOriginalPositionY: 1
    m_KeepOriginalPositionXZ: 0
    m_HeightFromFeet: 0
    m_Mirror: 0
  m_EditorCurves: []
  m_EulerEditorCurves: []
  m_HasGenericRootTransform: 0
  m_HasMotionFloatCurves: 0
  m_Events: []
