%YAML 1.1
%TAG !u! tag:unity3d.com,2011:
--- !u!74 &7400000
AnimationClip:
  m_ObjectHideFlags: 0
  m_CorrespondingSourceObject: {fileID: 0}
  m_PrefabInstance: {fileID: 0}
  m_PrefabAsset: {fileID: 0}
  m_Name: Anim_Biohazard_Stand_Up_R
  serializedVersion: 6
  m_Legacy: 0
  m_Compressed: 0
  m_UseHighQualityCurve: 1
  m_RotationCurves: []
  m_CompressedRotationCurves: []
  m_EulerCurves: []
  m_PositionCurves: []
  m_ScaleCurves: []
  m_FloatCurves: []
  m_PPtrCurves:
  - curve:
    - time: 0
      value: {fileID: 21300000, guid: 95ee197a37b37a6428be084dc59288d8, type: 3}
    - time: 0.1
      value: {fileID: 21300000, guid: c6e59d3cec0c27944a6fe89e570c3dfb, type: 3}
    - time: 0.2
      value: {fileID: 21300000, guid: 60110fd2581961245bb1ee8249f69caf, type: 3}
    - time: 0.3
      value: {fileID: 21300000, guid: a9aec928fb025204990c87f499863c6e, type: 3}
    - time: 0.4
      value: {fileID: 21300000, guid: 7159c50bdc0be184bb4400650845e58a, type: 3}
    - time: 0.5
      value: {fileID: 21300000, guid: 1b0c501f513605a4a8036a84ba734759, type: 3}
    - time: 0.6
      value: {fileID: 21300000, guid: 0a5bdfa11ac09784ba870a04d6044722, type: 3}
    - time: 0.7
      value: {fileID: 21300000, guid: 4c95195122f22d34a99a080a94d4bfd8, type: 3}
    - time: 0.8
      value: {fileID: 21300000, guid: 3f5ad628b046f864fb1a47452ed7cc50, type: 3}
    - time: 0.9
      value: {fileID: 21300000, guid: 4b854db752f91bf47ba8f59fad0c6b81, type: 3}
    - time: 1
      value: {fileID: 21300000, guid: 109fada335feb1b46b9321fe1e05c946, type: 3}
    - time: 1.1
      value: {fileID: 21300000, guid: ca61171f9eb1f294e9f1c68f057c234d, type: 3}
    - time: 1.2
      value: {fileID: 21300000, guid: 2379245825b7a4f4e8a55404c6f29c2a, type: 3}
    - time: 1.3
      value: {fileID: 21300000, guid: cf3e03ec5040f894fa1a4d6bda309f2e, type: 3}
    - time: 1.4
      value: {fileID: 21300000, guid: 7185d13086053474a84dbc8d81c0a333, type: 3}
    - time: 1.5
      value: {fileID: 21300000, guid: 838971c5756f6094796a6c178011d251, type: 3}
    - time: 1.6
      value: {fileID: 21300000, guid: ad96b5817291297448193f3ed10a99d7, type: 3}
    - time: 1.7
      value: {fileID: 21300000, guid: e3a35156ae405814a853665171311a31, type: 3}
    - time: 1.8
      value: {fileID: 21300000, guid: 9e296bb3bea5f4c478bfb6187c6559d2, type: 3}
    - time: 1.9
      value: {fileID: 21300000, guid: f167c84034414094c9730436f89b5dc6, type: 3}
    - time: 2
      value: {fileID: 21300000, guid: e60f20a0c497f124cbb90e47c8e5264c, type: 3}
    - time: 2.1
      value: {fileID: 21300000, guid: 7de71bfab265f224fbe549ff92fa446e, type: 3}
    attribute: m_Sprite
    path: 
    classID: 212
    script: {fileID: 0}
  m_SampleRate: 10
  m_WrapMode: 0
  m_Bounds:
    m_Center: {x: 0, y: 0, z: 0}
    m_Extent: {x: 0, y: 0, z: 0}
  m_ClipBindingConstant:
    genericBindings:
    - serializedVersion: 2
      path: 0
      attribute: 0
      script: {fileID: 0}
      typeID: 212
      customType: 23
      isPPtrCurve: 1
    pptrCurveMapping:
    - {fileID: 21300000, guid: 95ee197a37b37a6428be084dc59288d8, type: 3}
    - {fileID: 21300000, guid: c6e59d3cec0c27944a6fe89e570c3dfb, type: 3}
    - {fileID: 21300000, guid: 60110fd2581961245bb1ee8249f69caf, type: 3}
    - {fileID: 21300000, guid: a9aec928fb025204990c87f499863c6e, type: 3}
    - {fileID: 21300000, guid: 7159c50bdc0be184bb4400650845e58a, type: 3}
    - {fileID: 21300000, guid: 1b0c501f513605a4a8036a84ba734759, type: 3}
    - {fileID: 21300000, guid: 0a5bdfa11ac09784ba870a04d6044722, type: 3}
    - {fileID: 21300000, guid: 4c95195122f22d34a99a080a94d4bfd8, type: 3}
    - {fileID: 21300000, guid: 3f5ad628b046f864fb1a47452ed7cc50, type: 3}
    - {fileID: 21300000, guid: 4b854db752f91bf47ba8f59fad0c6b81, type: 3}
    - {fileID: 21300000, guid: 109fada335feb1b46b9321fe1e05c946, type: 3}
    - {fileID: 21300000, guid: ca61171f9eb1f294e9f1c68f057c234d, type: 3}
    - {fileID: 21300000, guid: 2379245825b7a4f4e8a55404c6f29c2a, type: 3}
    - {fileID: 21300000, guid: cf3e03ec5040f894fa1a4d6bda309f2e, type: 3}
    - {fileID: 21300000, guid: 7185d13086053474a84dbc8d81c0a333, type: 3}
    - {fileID: 21300000, guid: 838971c5756f6094796a6c178011d251, type: 3}
    - {fileID: 21300000, guid: ad96b5817291297448193f3ed10a99d7, type: 3}
    - {fileID: 21300000, guid: e3a35156ae405814a853665171311a31, type: 3}
    - {fileID: 21300000, guid: 9e296bb3bea5f4c478bfb6187c6559d2, type: 3}
    - {fileID: 21300000, guid: f167c84034414094c9730436f89b5dc6, type: 3}
    - {fileID: 21300000, guid: e60f20a0c497f124cbb90e47c8e5264c, type: 3}
    - {fileID: 21300000, guid: 7de71bfab265f224fbe549ff92fa446e, type: 3}
  m_AnimationClipSettings:
    serializedVersion: 2
    m_AdditiveReferencePoseClip: {fileID: 0}
    m_AdditiveReferencePoseTime: 0
    m_StartTime: 0
    m_StopTime: 2.1999998
    m_OrientationOffsetY: 0
    m_Level: 0
    m_CycleOffset: 0
    m_HasAdditiveReferencePose: 0
    m_LoopTime: 1
    m_LoopBlend: 0
    m_LoopBlendOrientation: 0
    m_LoopBlendPositionY: 0
    m_LoopBlendPositionXZ: 0
    m_KeepOriginalOrientation: 0
    m_KeepOriginalPositionY: 1
    m_KeepOriginalPositionXZ: 0
    m_HeightFromFeet: 0
    m_Mirror: 0
  m_EditorCurves: []
  m_EulerEditorCurves: []
  m_HasGenericRootTransform: 0
  m_HasMotionFloatCurves: 0
  m_Events: []
