%YAML 1.1
%TAG !u! tag:unity3d.com,2011:
--- !u!74 &7400000
AnimationClip:
  m_ObjectHideFlags: 0
  m_CorrespondingSourceObject: {fileID: 0}
  m_PrefabInstance: {fileID: 0}
  m_PrefabAsset: {fileID: 0}
  m_Name: Anim_Biohazard_Stand_Up_LT
  serializedVersion: 6
  m_Legacy: 0
  m_Compressed: 0
  m_UseHighQualityCurve: 1
  m_RotationCurves: []
  m_CompressedRotationCurves: []
  m_EulerCurves: []
  m_PositionCurves: []
  m_ScaleCurves: []
  m_FloatCurves: []
  m_PPtrCurves:
  - curve:
    - time: 0
      value: {fileID: 21300000, guid: 2560acb75a8d3754d8e905b274f84f01, type: 3}
    - time: 0.1
      value: {fileID: 21300000, guid: 28ba5627b5f6df44599b4b3314b7344f, type: 3}
    - time: 0.2
      value: {fileID: 21300000, guid: 031840cbbdb73824ba9f6d392f41694b, type: 3}
    - time: 0.3
      value: {fileID: 21300000, guid: 1d12d53079b048a4888d49747f91bdb2, type: 3}
    - time: 0.4
      value: {fileID: 21300000, guid: 750a63bdeb3eb504c8fee590679adfbb, type: 3}
    - time: 0.5
      value: {fileID: 21300000, guid: 07cd0b832ea0a3b46a95a195a66fcd25, type: 3}
    - time: 0.6
      value: {fileID: 21300000, guid: 86d251eaf906db041a35929b495c9af8, type: 3}
    - time: 0.7
      value: {fileID: 21300000, guid: b37ba2fb28a8a3d4e861779c0c31410a, type: 3}
    - time: 0.8
      value: {fileID: 21300000, guid: c501b5a7983a1eb44a26990149de7813, type: 3}
    - time: 0.9
      value: {fileID: 21300000, guid: 5fc764a5c9fcf7e49b8768c2762de818, type: 3}
    - time: 1
      value: {fileID: 21300000, guid: 037111e1c61a2d941bf5064d63d6bc19, type: 3}
    - time: 1.1
      value: {fileID: 21300000, guid: 6d34f821d56ab1640b5c0b89f1a0ac64, type: 3}
    - time: 1.2
      value: {fileID: 21300000, guid: 67c8927098e3feb46aa952f5e85a88ed, type: 3}
    - time: 1.3
      value: {fileID: 21300000, guid: b3081600448e23440abbd59f2d2f7b0c, type: 3}
    - time: 1.4
      value: {fileID: 21300000, guid: 81a8f2793927802439a871d1620ce408, type: 3}
    - time: 1.5
      value: {fileID: 21300000, guid: 6dbf226062dcc114291a46e4709ed6e7, type: 3}
    - time: 1.6
      value: {fileID: 21300000, guid: 70ce5d9a48b42f7459117428737ccaee, type: 3}
    - time: 1.7
      value: {fileID: 21300000, guid: 71956a4f6c9de704394ed1f7c7dce6d5, type: 3}
    - time: 1.8
      value: {fileID: 21300000, guid: 9ef08aee4db59dc4e9756a0da2f9f360, type: 3}
    - time: 1.9
      value: {fileID: 21300000, guid: 760af4a352803574d89518f5791e5aa1, type: 3}
    - time: 2
      value: {fileID: 21300000, guid: 6902ca9ae584bfc40bfadb752f7942aa, type: 3}
    - time: 2.1
      value: {fileID: 21300000, guid: d8abcf5ecbac567478414148a9c1f999, type: 3}
    attribute: m_Sprite
    path: 
    classID: 212
    script: {fileID: 0}
  m_SampleRate: 10
  m_WrapMode: 0
  m_Bounds:
    m_Center: {x: 0, y: 0, z: 0}
    m_Extent: {x: 0, y: 0, z: 0}
  m_ClipBindingConstant:
    genericBindings:
    - serializedVersion: 2
      path: 0
      attribute: 0
      script: {fileID: 0}
      typeID: 212
      customType: 23
      isPPtrCurve: 1
    pptrCurveMapping:
    - {fileID: 21300000, guid: 2560acb75a8d3754d8e905b274f84f01, type: 3}
    - {fileID: 21300000, guid: 28ba5627b5f6df44599b4b3314b7344f, type: 3}
    - {fileID: 21300000, guid: 031840cbbdb73824ba9f6d392f41694b, type: 3}
    - {fileID: 21300000, guid: 1d12d53079b048a4888d49747f91bdb2, type: 3}
    - {fileID: 21300000, guid: 750a63bdeb3eb504c8fee590679adfbb, type: 3}
    - {fileID: 21300000, guid: 07cd0b832ea0a3b46a95a195a66fcd25, type: 3}
    - {fileID: 21300000, guid: 86d251eaf906db041a35929b495c9af8, type: 3}
    - {fileID: 21300000, guid: b37ba2fb28a8a3d4e861779c0c31410a, type: 3}
    - {fileID: 21300000, guid: c501b5a7983a1eb44a26990149de7813, type: 3}
    - {fileID: 21300000, guid: 5fc764a5c9fcf7e49b8768c2762de818, type: 3}
    - {fileID: 21300000, guid: 037111e1c61a2d941bf5064d63d6bc19, type: 3}
    - {fileID: 21300000, guid: 6d34f821d56ab1640b5c0b89f1a0ac64, type: 3}
    - {fileID: 21300000, guid: 67c8927098e3feb46aa952f5e85a88ed, type: 3}
    - {fileID: 21300000, guid: b3081600448e23440abbd59f2d2f7b0c, type: 3}
    - {fileID: 21300000, guid: 81a8f2793927802439a871d1620ce408, type: 3}
    - {fileID: 21300000, guid: 6dbf226062dcc114291a46e4709ed6e7, type: 3}
    - {fileID: 21300000, guid: 70ce5d9a48b42f7459117428737ccaee, type: 3}
    - {fileID: 21300000, guid: 71956a4f6c9de704394ed1f7c7dce6d5, type: 3}
    - {fileID: 21300000, guid: 9ef08aee4db59dc4e9756a0da2f9f360, type: 3}
    - {fileID: 21300000, guid: 760af4a352803574d89518f5791e5aa1, type: 3}
    - {fileID: 21300000, guid: 6902ca9ae584bfc40bfadb752f7942aa, type: 3}
    - {fileID: 21300000, guid: d8abcf5ecbac567478414148a9c1f999, type: 3}
  m_AnimationClipSettings:
    serializedVersion: 2
    m_AdditiveReferencePoseClip: {fileID: 0}
    m_AdditiveReferencePoseTime: 0
    m_StartTime: 0
    m_StopTime: 2.1999998
    m_OrientationOffsetY: 0
    m_Level: 0
    m_CycleOffset: 0
    m_HasAdditiveReferencePose: 0
    m_LoopTime: 1
    m_LoopBlend: 0
    m_LoopBlendOrientation: 0
    m_LoopBlendPositionY: 0
    m_LoopBlendPositionXZ: 0
    m_KeepOriginalOrientation: 0
    m_KeepOriginalPositionY: 1
    m_KeepOriginalPositionXZ: 0
    m_HeightFromFeet: 0
    m_Mirror: 0
  m_EditorCurves: []
  m_EulerEditorCurves: []
  m_HasGenericRootTransform: 0
  m_HasMotionFloatCurves: 0
  m_Events: []
