%YAML 1.1
%TAG !u! tag:unity3d.com,2011:
--- !u!74 &7400000
AnimationClip:
  m_ObjectHideFlags: 0
  m_CorrespondingSourceObject: {fileID: 0}
  m_PrefabInstance: {fileID: 0}
  m_PrefabAsset: {fileID: 0}
  m_Name: Anim_PLT_Mechanic_Idle
  serializedVersion: 6
  m_Legacy: 0
  m_Compressed: 0
  m_UseHighQualityCurve: 1
  m_RotationCurves: []
  m_CompressedRotationCurves: []
  m_EulerCurves: []
  m_PositionCurves: []
  m_ScaleCurves: []
  m_FloatCurves: []
  m_PPtrCurves:
  - curve:
    - time: 0
      value: {fileID: 21300000, guid: 7e1f42d579dcb564bb7e6fdd3984db64, type: 3}
    - time: 0.07692308
      value: {fileID: 21300000, guid: 80770078d6afdd445b9762118ce15fb3, type: 3}
    - time: 0.15384616
      value: {fileID: 21300000, guid: f6049e58c37f2df4499c9e818e08919d, type: 3}
    - time: 0.23076923
      value: {fileID: 21300000, guid: c2974463050b0b64eac79a4706e3da33, type: 3}
    - time: 0.30769232
      value: {fileID: 21300000, guid: 7b832d431fa22844f8f9de7525bccbae, type: 3}
    - time: 0.3846154
      value: {fileID: 21300000, guid: 2cf0a87bf8e58ea4f8c33cc8c1de3ae4, type: 3}
    - time: 0.46153846
      value: {fileID: 21300000, guid: 4523d74fbe9308942ab607a76fd353e3, type: 3}
    - time: 0.53846157
      value: {fileID: 21300000, guid: 43d0ca622def5b547bfb6a7cd04a040a, type: 3}
    - time: 0.61538464
      value: {fileID: 21300000, guid: 3dc9e13a56831de42b1e5ecb01970279, type: 3}
    - time: 0.6923077
      value: {fileID: 21300000, guid: 0d4d31841f0a26445a0b47bc12c01562, type: 3}
    - time: 0.7692308
      value: {fileID: 21300000, guid: e4f62be1404cc6d48a6f8c300c9f3a64, type: 3}
    - time: 0.84615386
      value: {fileID: 21300000, guid: 5996e8a46199c2645bc2620a8dc5bf7b, type: 3}
    - time: 0.9230769
      value: {fileID: 21300000, guid: 1778433e21cd89043ba8d24d5fa33a35, type: 3}
    - time: 1
      value: {fileID: 21300000, guid: 10c088c78afdf6240940f9ecffd3cd35, type: 3}
    - time: 1.0769231
      value: {fileID: 21300000, guid: e2d23d5b33112c14abe87386c6547ebc, type: 3}
    attribute: m_Sprite
    path: 
    classID: 212
    script: {fileID: 0}
  m_SampleRate: 13
  m_WrapMode: 0
  m_Bounds:
    m_Center: {x: 0, y: 0, z: 0}
    m_Extent: {x: 0, y: 0, z: 0}
  m_ClipBindingConstant:
    genericBindings:
    - serializedVersion: 2
      path: 0
      attribute: 0
      script: {fileID: 0}
      typeID: 212
      customType: 23
      isPPtrCurve: 1
    pptrCurveMapping:
    - {fileID: 21300000, guid: 7e1f42d579dcb564bb7e6fdd3984db64, type: 3}
    - {fileID: 21300000, guid: 80770078d6afdd445b9762118ce15fb3, type: 3}
    - {fileID: 21300000, guid: f6049e58c37f2df4499c9e818e08919d, type: 3}
    - {fileID: 21300000, guid: c2974463050b0b64eac79a4706e3da33, type: 3}
    - {fileID: 21300000, guid: 7b832d431fa22844f8f9de7525bccbae, type: 3}
    - {fileID: 21300000, guid: 2cf0a87bf8e58ea4f8c33cc8c1de3ae4, type: 3}
    - {fileID: 21300000, guid: 4523d74fbe9308942ab607a76fd353e3, type: 3}
    - {fileID: 21300000, guid: 43d0ca622def5b547bfb6a7cd04a040a, type: 3}
    - {fileID: 21300000, guid: 3dc9e13a56831de42b1e5ecb01970279, type: 3}
    - {fileID: 21300000, guid: 0d4d31841f0a26445a0b47bc12c01562, type: 3}
    - {fileID: 21300000, guid: e4f62be1404cc6d48a6f8c300c9f3a64, type: 3}
    - {fileID: 21300000, guid: 5996e8a46199c2645bc2620a8dc5bf7b, type: 3}
    - {fileID: 21300000, guid: 1778433e21cd89043ba8d24d5fa33a35, type: 3}
    - {fileID: 21300000, guid: 10c088c78afdf6240940f9ecffd3cd35, type: 3}
    - {fileID: 21300000, guid: e2d23d5b33112c14abe87386c6547ebc, type: 3}
  m_AnimationClipSettings:
    serializedVersion: 2
    m_AdditiveReferencePoseClip: {fileID: 0}
    m_AdditiveReferencePoseTime: 0
    m_StartTime: 0
    m_StopTime: 1.1538463
    m_OrientationOffsetY: 0
    m_Level: 0
    m_CycleOffset: 0
    m_HasAdditiveReferencePose: 0
    m_LoopTime: 1
    m_LoopBlend: 0
    m_LoopBlendOrientation: 0
    m_LoopBlendPositionY: 0
    m_LoopBlendPositionXZ: 0
    m_KeepOriginalOrientation: 0
    m_KeepOriginalPositionY: 1
    m_KeepOriginalPositionXZ: 0
    m_HeightFromFeet: 0
    m_Mirror: 0
  m_EditorCurves: []
  m_EulerEditorCurves: []
  m_HasGenericRootTransform: 0
  m_HasMotionFloatCurves: 0
  m_Events: []
