%YAML 1.1
%TAG !u! tag:unity3d.com,2011:
--- !u!74 &7400000
AnimationClip:
  m_ObjectHideFlags: 0
  m_CorrespondingSourceObject: {fileID: 0}
  m_PrefabInstance: {fileID: 0}
  m_PrefabAsset: {fileID: 0}
  m_Name: Anim_Mechanic_Idle_TR
  serializedVersion: 6
  m_Legacy: 0
  m_Compressed: 0
  m_UseHighQualityCurve: 1
  m_RotationCurves: []
  m_CompressedRotationCurves: []
  m_EulerCurves: []
  m_PositionCurves: []
  m_ScaleCurves: []
  m_FloatCurves: []
  m_PPtrCurves:
  - curve:
    - time: 0
      value: {fileID: 21300000, guid: 6cff1e9c143bdf349a0386ae232d3501, type: 3}
    - time: 0.07692308
      value: {fileID: 21300000, guid: a0cb01d8279d3904f808d689ae57ae6f, type: 3}
    - time: 0.15384616
      value: {fileID: 21300000, guid: 11ed80e63d9257c4e98c68d20db07890, type: 3}
    - time: 0.23076923
      value: {fileID: 21300000, guid: e479d21cb2e5cf64a98342362c01ef10, type: 3}
    - time: 0.30769232
      value: {fileID: 21300000, guid: cef1b29bee527ef4bad72b02a0054270, type: 3}
    - time: 0.3846154
      value: {fileID: 21300000, guid: 2982941f369e43945b85a236cc72cb58, type: 3}
    - time: 0.46153846
      value: {fileID: 21300000, guid: 95d2f3cf1cf332a4f9baba6db6efd0c1, type: 3}
    - time: 0.53846157
      value: {fileID: 21300000, guid: ce3f8bc521163b44bba4162075bebfac, type: 3}
    - time: 0.61538464
      value: {fileID: 21300000, guid: 547efab431d35da4daf5b06012a49f95, type: 3}
    - time: 0.6923077
      value: {fileID: 21300000, guid: 933c3ae11b584c64a8c63557d19b8b0c, type: 3}
    - time: 0.7692308
      value: {fileID: 21300000, guid: 7ff42a5645361d04598a7b7cf5da8808, type: 3}
    - time: 0.84615386
      value: {fileID: 21300000, guid: 5c3c9e971aa95cf459f01ffb4dc5ac38, type: 3}
    - time: 0.9230769
      value: {fileID: 21300000, guid: 6a4ea0769c7217247a0f9816f777a445, type: 3}
    - time: 1
      value: {fileID: 21300000, guid: d5458023419ffd14482cfcfd3a873a26, type: 3}
    - time: 1.0769231
      value: {fileID: 21300000, guid: b3219559b25147d4897cb05bd06fdf40, type: 3}
    attribute: m_Sprite
    path: 
    classID: 212
    script: {fileID: 0}
  m_SampleRate: 13
  m_WrapMode: 0
  m_Bounds:
    m_Center: {x: 0, y: 0, z: 0}
    m_Extent: {x: 0, y: 0, z: 0}
  m_ClipBindingConstant:
    genericBindings:
    - serializedVersion: 2
      path: 0
      attribute: 0
      script: {fileID: 0}
      typeID: 212
      customType: 23
      isPPtrCurve: 1
    pptrCurveMapping:
    - {fileID: 21300000, guid: 6cff1e9c143bdf349a0386ae232d3501, type: 3}
    - {fileID: 21300000, guid: a0cb01d8279d3904f808d689ae57ae6f, type: 3}
    - {fileID: 21300000, guid: 11ed80e63d9257c4e98c68d20db07890, type: 3}
    - {fileID: 21300000, guid: e479d21cb2e5cf64a98342362c01ef10, type: 3}
    - {fileID: 21300000, guid: cef1b29bee527ef4bad72b02a0054270, type: 3}
    - {fileID: 21300000, guid: 2982941f369e43945b85a236cc72cb58, type: 3}
    - {fileID: 21300000, guid: 95d2f3cf1cf332a4f9baba6db6efd0c1, type: 3}
    - {fileID: 21300000, guid: ce3f8bc521163b44bba4162075bebfac, type: 3}
    - {fileID: 21300000, guid: 547efab431d35da4daf5b06012a49f95, type: 3}
    - {fileID: 21300000, guid: 933c3ae11b584c64a8c63557d19b8b0c, type: 3}
    - {fileID: 21300000, guid: 7ff42a5645361d04598a7b7cf5da8808, type: 3}
    - {fileID: 21300000, guid: 5c3c9e971aa95cf459f01ffb4dc5ac38, type: 3}
    - {fileID: 21300000, guid: 6a4ea0769c7217247a0f9816f777a445, type: 3}
    - {fileID: 21300000, guid: d5458023419ffd14482cfcfd3a873a26, type: 3}
    - {fileID: 21300000, guid: b3219559b25147d4897cb05bd06fdf40, type: 3}
  m_AnimationClipSettings:
    serializedVersion: 2
    m_AdditiveReferencePoseClip: {fileID: 0}
    m_AdditiveReferencePoseTime: 0
    m_StartTime: 0
    m_StopTime: 1.1538463
    m_OrientationOffsetY: 0
    m_Level: 0
    m_CycleOffset: 0
    m_HasAdditiveReferencePose: 0
    m_LoopTime: 1
    m_LoopBlend: 0
    m_LoopBlendOrientation: 0
    m_LoopBlendPositionY: 0
    m_LoopBlendPositionXZ: 0
    m_KeepOriginalOrientation: 0
    m_KeepOriginalPositionY: 1
    m_KeepOriginalPositionXZ: 0
    m_HeightFromFeet: 0
    m_Mirror: 0
  m_EditorCurves: []
  m_EulerEditorCurves: []
  m_HasGenericRootTransform: 0
  m_HasMotionFloatCurves: 0
  m_Events: []
