%YAML 1.1
%TAG !u! tag:unity3d.com,2011:
--- !u!74 &7400000
AnimationClip:
  m_ObjectHideFlags: 0
  m_CorrespondingSourceObject: {fileID: 0}
  m_PrefabInstance: {fileID: 0}
  m_PrefabAsset: {fileID: 0}
  m_Name: Anim_Infected_GetHit_LT
  serializedVersion: 6
  m_Legacy: 0
  m_Compressed: 0
  m_UseHighQualityCurve: 1
  m_RotationCurves: []
  m_CompressedRotationCurves: []
  m_EulerCurves: []
  m_PositionCurves: []
  m_ScaleCurves: []
  m_FloatCurves: []
  m_PPtrCurves:
  - curve:
    - time: 0
      value: {fileID: 21300000, guid: 225a6cbeda071c34f8a84c9a9ed39227, type: 3}
    - time: 0.083333336
      value: {fileID: 21300000, guid: d7251c1de72e0d94c8c706ce6f6a9668, type: 3}
    - time: 0.16666667
      value: {fileID: 21300000, guid: 15924943911754c479b337251823e27b, type: 3}
    - time: 0.25
      value: {fileID: 21300000, guid: 6d1d9f7caae90a546b258b27edd66577, type: 3}
    - time: 0.33333334
      value: {fileID: 21300000, guid: 708acade7bb0bdd4c9791e48265b75e2, type: 3}
    - time: 0.41666666
      value: {fileID: 21300000, guid: 30758ba5a0a1c7e478cd17c81240a889, type: 3}
    - time: 0.5
      value: {fileID: 21300000, guid: 9c3b0a964eface648aca238375a59fc6, type: 3}
    attribute: m_Sprite
    path: 
    classID: 212
    script: {fileID: 0}
  m_SampleRate: 12
  m_WrapMode: 0
  m_Bounds:
    m_Center: {x: 0, y: 0, z: 0}
    m_Extent: {x: 0, y: 0, z: 0}
  m_ClipBindingConstant:
    genericBindings:
    - serializedVersion: 2
      path: 0
      attribute: 0
      script: {fileID: 0}
      typeID: 212
      customType: 23
      isPPtrCurve: 1
    pptrCurveMapping:
    - {fileID: 21300000, guid: 225a6cbeda071c34f8a84c9a9ed39227, type: 3}
    - {fileID: 21300000, guid: d7251c1de72e0d94c8c706ce6f6a9668, type: 3}
    - {fileID: 21300000, guid: 15924943911754c479b337251823e27b, type: 3}
    - {fileID: 21300000, guid: 6d1d9f7caae90a546b258b27edd66577, type: 3}
    - {fileID: 21300000, guid: 708acade7bb0bdd4c9791e48265b75e2, type: 3}
    - {fileID: 21300000, guid: 30758ba5a0a1c7e478cd17c81240a889, type: 3}
    - {fileID: 21300000, guid: 9c3b0a964eface648aca238375a59fc6, type: 3}
  m_AnimationClipSettings:
    serializedVersion: 2
    m_AdditiveReferencePoseClip: {fileID: 0}
    m_AdditiveReferencePoseTime: 0
    m_StartTime: 0
    m_StopTime: 0.5833333
    m_OrientationOffsetY: 0
    m_Level: 0
    m_CycleOffset: 0
    m_HasAdditiveReferencePose: 0
    m_LoopTime: 1
    m_LoopBlend: 0
    m_LoopBlendOrientation: 0
    m_LoopBlendPositionY: 0
    m_LoopBlendPositionXZ: 0
    m_KeepOriginalOrientation: 0
    m_KeepOriginalPositionY: 1
    m_KeepOriginalPositionXZ: 0
    m_HeightFromFeet: 0
    m_Mirror: 0
  m_EditorCurves: []
  m_EulerEditorCurves: []
  m_HasGenericRootTransform: 0
  m_HasMotionFloatCurves: 0
  m_Events: []
