%YAML 1.1
%TAG !u! tag:unity3d.com,2011:
--- !u!74 &7400000
AnimationClip:
  m_ObjectHideFlags: 0
  m_CorrespondingSourceObject: {fileID: 0}
  m_PrefabInstance: {fileID: 0}
  m_PrefabAsset: {fileID: 0}
  m_Name: Anim_Infected_Stand_Up_L
  serializedVersion: 6
  m_Legacy: 0
  m_Compressed: 0
  m_UseHighQualityCurve: 1
  m_RotationCurves: []
  m_CompressedRotationCurves: []
  m_EulerCurves: []
  m_PositionCurves: []
  m_ScaleCurves: []
  m_FloatCurves: []
  m_PPtrCurves:
  - curve:
    - time: 0
      value: {fileID: 21300000, guid: 369f698a03bfa4841b1659d565729b45, type: 3}
    - time: 0.1
      value: {fileID: 21300000, guid: e7c9c64185ece8140a7d344e0490220b, type: 3}
    - time: 0.2
      value: {fileID: 21300000, guid: 72300326199faab4f9c21b1aa6db2566, type: 3}
    - time: 0.3
      value: {fileID: 21300000, guid: 6c43c777d2119a345a5da844f9179e1b, type: 3}
    - time: 0.4
      value: {fileID: 21300000, guid: 3b5d23b039f908b4a8446ed31be004b6, type: 3}
    - time: 0.5
      value: {fileID: 21300000, guid: 1713a7345dfea064ab10c2106ac30765, type: 3}
    - time: 0.6
      value: {fileID: 21300000, guid: a146386fd83da5d488239f394d5145a4, type: 3}
    - time: 0.7
      value: {fileID: 21300000, guid: bc4bf44502a46ab45af2c7b17594a4ea, type: 3}
    - time: 0.8
      value: {fileID: 21300000, guid: 025480f906e64e948883132bbe9df380, type: 3}
    - time: 0.9
      value: {fileID: 21300000, guid: ddc07884c53ec144b8423116c24090d9, type: 3}
    - time: 1
      value: {fileID: 21300000, guid: ae7701858a5a7bb43a4ce11dc104f7d3, type: 3}
    - time: 1.1
      value: {fileID: 21300000, guid: 0a36f352cdfa84543a790437166446e2, type: 3}
    - time: 1.2
      value: {fileID: 21300000, guid: 2ad3988808f5fe144ab582e8f1d4032a, type: 3}
    - time: 1.3
      value: {fileID: 21300000, guid: e3233e670302cb44da6627118cdafa48, type: 3}
    - time: 1.4
      value: {fileID: 21300000, guid: ebdaa2570a6367e43985f6ab7041ed83, type: 3}
    - time: 1.5
      value: {fileID: 21300000, guid: f2534d6f43f11d043a208901a1410f67, type: 3}
    - time: 1.6
      value: {fileID: 21300000, guid: 98b885c17cb99474aa64ea32abd8093a, type: 3}
    - time: 1.7
      value: {fileID: 21300000, guid: 38995107149aef041a901a40ccedaa46, type: 3}
    - time: 1.8
      value: {fileID: 21300000, guid: abaebe4b227c1484b976e4afc955ea3d, type: 3}
    - time: 1.9
      value: {fileID: 21300000, guid: 1dbe295764014844fac8c4ccbb093283, type: 3}
    - time: 2
      value: {fileID: 21300000, guid: 24e21da8e6208eb48907cf7b7c1fe5a2, type: 3}
    - time: 2.1
      value: {fileID: 21300000, guid: 59d895ddc735500448d3de19c255d768, type: 3}
    attribute: m_Sprite
    path: 
    classID: 212
    script: {fileID: 0}
  m_SampleRate: 10
  m_WrapMode: 0
  m_Bounds:
    m_Center: {x: 0, y: 0, z: 0}
    m_Extent: {x: 0, y: 0, z: 0}
  m_ClipBindingConstant:
    genericBindings:
    - serializedVersion: 2
      path: 0
      attribute: 0
      script: {fileID: 0}
      typeID: 212
      customType: 23
      isPPtrCurve: 1
    pptrCurveMapping:
    - {fileID: 21300000, guid: 369f698a03bfa4841b1659d565729b45, type: 3}
    - {fileID: 21300000, guid: e7c9c64185ece8140a7d344e0490220b, type: 3}
    - {fileID: 21300000, guid: 72300326199faab4f9c21b1aa6db2566, type: 3}
    - {fileID: 21300000, guid: 6c43c777d2119a345a5da844f9179e1b, type: 3}
    - {fileID: 21300000, guid: 3b5d23b039f908b4a8446ed31be004b6, type: 3}
    - {fileID: 21300000, guid: 1713a7345dfea064ab10c2106ac30765, type: 3}
    - {fileID: 21300000, guid: a146386fd83da5d488239f394d5145a4, type: 3}
    - {fileID: 21300000, guid: bc4bf44502a46ab45af2c7b17594a4ea, type: 3}
    - {fileID: 21300000, guid: 025480f906e64e948883132bbe9df380, type: 3}
    - {fileID: 21300000, guid: ddc07884c53ec144b8423116c24090d9, type: 3}
    - {fileID: 21300000, guid: ae7701858a5a7bb43a4ce11dc104f7d3, type: 3}
    - {fileID: 21300000, guid: 0a36f352cdfa84543a790437166446e2, type: 3}
    - {fileID: 21300000, guid: 2ad3988808f5fe144ab582e8f1d4032a, type: 3}
    - {fileID: 21300000, guid: e3233e670302cb44da6627118cdafa48, type: 3}
    - {fileID: 21300000, guid: ebdaa2570a6367e43985f6ab7041ed83, type: 3}
    - {fileID: 21300000, guid: f2534d6f43f11d043a208901a1410f67, type: 3}
    - {fileID: 21300000, guid: 98b885c17cb99474aa64ea32abd8093a, type: 3}
    - {fileID: 21300000, guid: 38995107149aef041a901a40ccedaa46, type: 3}
    - {fileID: 21300000, guid: abaebe4b227c1484b976e4afc955ea3d, type: 3}
    - {fileID: 21300000, guid: 1dbe295764014844fac8c4ccbb093283, type: 3}
    - {fileID: 21300000, guid: 24e21da8e6208eb48907cf7b7c1fe5a2, type: 3}
    - {fileID: 21300000, guid: 59d895ddc735500448d3de19c255d768, type: 3}
  m_AnimationClipSettings:
    serializedVersion: 2
    m_AdditiveReferencePoseClip: {fileID: 0}
    m_AdditiveReferencePoseTime: 0
    m_StartTime: 0
    m_StopTime: 2.1999998
    m_OrientationOffsetY: 0
    m_Level: 0
    m_CycleOffset: 0
    m_HasAdditiveReferencePose: 0
    m_LoopTime: 1
    m_LoopBlend: 0
    m_LoopBlendOrientation: 0
    m_LoopBlendPositionY: 0
    m_LoopBlendPositionXZ: 0
    m_KeepOriginalOrientation: 0
    m_KeepOriginalPositionY: 1
    m_KeepOriginalPositionXZ: 0
    m_HeightFromFeet: 0
    m_Mirror: 0
  m_EditorCurves: []
  m_EulerEditorCurves: []
  m_HasGenericRootTransform: 0
  m_HasMotionFloatCurves: 0
  m_Events: []
