%YAML 1.1
%TAG !u! tag:unity3d.com,2011:
--- !u!74 &7400000
AnimationClip:
  m_ObjectHideFlags: 0
  m_CorrespondingSourceObject: {fileID: 0}
  m_PrefabInstance: {fileID: 0}
  m_PrefabAsset: {fileID: 0}
  m_Name: Anim_Prisoner_Idle_TR
  serializedVersion: 6
  m_Legacy: 0
  m_Compressed: 0
  m_UseHighQualityCurve: 1
  m_RotationCurves: []
  m_CompressedRotationCurves: []
  m_EulerCurves: []
  m_PositionCurves: []
  m_ScaleCurves: []
  m_FloatCurves: []
  m_PPtrCurves:
  - curve:
    - time: 0
      value: {fileID: 21300000, guid: 9ec23a0500aaeae49a5f30171929d3d6, type: 3}
    - time: 0.07692308
      value: {fileID: 21300000, guid: 2a077be4f7106394b92c16b03880a322, type: 3}
    - time: 0.15384616
      value: {fileID: 21300000, guid: 7739e587632159f43ae28c0974704254, type: 3}
    - time: 0.23076923
      value: {fileID: 21300000, guid: 22ff9b23df68bc346b739e7184fb9197, type: 3}
    - time: 0.30769232
      value: {fileID: 21300000, guid: 003e42e8cabc65c4d85d61e69a89e939, type: 3}
    - time: 0.3846154
      value: {fileID: 21300000, guid: 648ebb7830d1b1d41ba2d59702a098bf, type: 3}
    - time: 0.46153846
      value: {fileID: 21300000, guid: 6ed5748e3af9d29468855314f9872e92, type: 3}
    - time: 0.53846157
      value: {fileID: 21300000, guid: 1f3612eab4d349a4ba6002a1400606d8, type: 3}
    - time: 0.61538464
      value: {fileID: 21300000, guid: 1c4e4ac4dbab8f441bd9bcf992525f50, type: 3}
    - time: 0.6923077
      value: {fileID: 21300000, guid: 7950360adfd265246bd4f2768bde9232, type: 3}
    - time: 0.7692308
      value: {fileID: 21300000, guid: 0c388f5a3af60fa4ca3cc67e50e9614a, type: 3}
    - time: 0.84615386
      value: {fileID: 21300000, guid: ace78d21b4b362c489a9bd9009d9be81, type: 3}
    - time: 0.9230769
      value: {fileID: 21300000, guid: f116d994d04b6ed40a08dff95fb8591b, type: 3}
    - time: 1
      value: {fileID: 21300000, guid: 34e8f9e4b5f6d1d4286f8f48ae3aa543, type: 3}
    - time: 1.0769231
      value: {fileID: 21300000, guid: 49811692d09377b499d1f49bf4b3ef02, type: 3}
    attribute: m_Sprite
    path: 
    classID: 212
    script: {fileID: 0}
  m_SampleRate: 13
  m_WrapMode: 0
  m_Bounds:
    m_Center: {x: 0, y: 0, z: 0}
    m_Extent: {x: 0, y: 0, z: 0}
  m_ClipBindingConstant:
    genericBindings:
    - serializedVersion: 2
      path: 0
      attribute: 0
      script: {fileID: 0}
      typeID: 212
      customType: 23
      isPPtrCurve: 1
    pptrCurveMapping:
    - {fileID: 21300000, guid: 9ec23a0500aaeae49a5f30171929d3d6, type: 3}
    - {fileID: 21300000, guid: 2a077be4f7106394b92c16b03880a322, type: 3}
    - {fileID: 21300000, guid: 7739e587632159f43ae28c0974704254, type: 3}
    - {fileID: 21300000, guid: 22ff9b23df68bc346b739e7184fb9197, type: 3}
    - {fileID: 21300000, guid: 003e42e8cabc65c4d85d61e69a89e939, type: 3}
    - {fileID: 21300000, guid: 648ebb7830d1b1d41ba2d59702a098bf, type: 3}
    - {fileID: 21300000, guid: 6ed5748e3af9d29468855314f9872e92, type: 3}
    - {fileID: 21300000, guid: 1f3612eab4d349a4ba6002a1400606d8, type: 3}
    - {fileID: 21300000, guid: 1c4e4ac4dbab8f441bd9bcf992525f50, type: 3}
    - {fileID: 21300000, guid: 7950360adfd265246bd4f2768bde9232, type: 3}
    - {fileID: 21300000, guid: 0c388f5a3af60fa4ca3cc67e50e9614a, type: 3}
    - {fileID: 21300000, guid: ace78d21b4b362c489a9bd9009d9be81, type: 3}
    - {fileID: 21300000, guid: f116d994d04b6ed40a08dff95fb8591b, type: 3}
    - {fileID: 21300000, guid: 34e8f9e4b5f6d1d4286f8f48ae3aa543, type: 3}
    - {fileID: 21300000, guid: 49811692d09377b499d1f49bf4b3ef02, type: 3}
  m_AnimationClipSettings:
    serializedVersion: 2
    m_AdditiveReferencePoseClip: {fileID: 0}
    m_AdditiveReferencePoseTime: 0
    m_StartTime: 0
    m_StopTime: 1.1538463
    m_OrientationOffsetY: 0
    m_Level: 0
    m_CycleOffset: 0
    m_HasAdditiveReferencePose: 0
    m_LoopTime: 1
    m_LoopBlend: 0
    m_LoopBlendOrientation: 0
    m_LoopBlendPositionY: 0
    m_LoopBlendPositionXZ: 0
    m_KeepOriginalOrientation: 0
    m_KeepOriginalPositionY: 1
    m_KeepOriginalPositionXZ: 0
    m_HeightFromFeet: 0
    m_Mirror: 0
  m_EditorCurves: []
  m_EulerEditorCurves: []
  m_HasGenericRootTransform: 0
  m_HasMotionFloatCurves: 0
  m_Events: []
