%YAML 1.1
%TAG !u! tag:unity3d.com,2011:
--- !u!74 &7400000
AnimationClip:
  m_ObjectHideFlags: 0
  m_CorrespondingSourceObject: {fileID: 0}
  m_PrefabInstance: {fileID: 0}
  m_PrefabAsset: {fileID: 0}
  m_Name: Anim_Policeman_Stand_Up_LT
  serializedVersion: 6
  m_Legacy: 0
  m_Compressed: 0
  m_UseHighQualityCurve: 1
  m_RotationCurves: []
  m_CompressedRotationCurves: []
  m_EulerCurves: []
  m_PositionCurves: []
  m_ScaleCurves: []
  m_FloatCurves: []
  m_PPtrCurves:
  - curve:
    - time: 0
      value: {fileID: 21300000, guid: a2adc69f07e78b74f9d7197e5d5ab34c, type: 3}
    - time: 0.1
      value: {fileID: 21300000, guid: 25f45634eccaad84aa0a7fe2483729bb, type: 3}
    - time: 0.2
      value: {fileID: 21300000, guid: 2735a2b11acfbd74385e185b318d901a, type: 3}
    - time: 0.3
      value: {fileID: 21300000, guid: 926103e59028c334c90018ecffd636c8, type: 3}
    - time: 0.4
      value: {fileID: 21300000, guid: 2931d5bfc475c434096cad82b634139f, type: 3}
    - time: 0.5
      value: {fileID: 21300000, guid: e261f14569788e34a8c172e5e88f7584, type: 3}
    - time: 0.6
      value: {fileID: 21300000, guid: 4a7ac34032f806d4b8dfe73bd77b9118, type: 3}
    - time: 0.7
      value: {fileID: 21300000, guid: b44b3245fb0811848be56dd5a46bd8c8, type: 3}
    - time: 0.8
      value: {fileID: 21300000, guid: 9d4b5e86b41106d46807f8d36a44f7b8, type: 3}
    - time: 0.9
      value: {fileID: 21300000, guid: e14ae6364d843764695a0cd2210667da, type: 3}
    - time: 1
      value: {fileID: 21300000, guid: d9ed4ae16065bc64096e0692c55988b5, type: 3}
    - time: 1.1
      value: {fileID: 21300000, guid: 3c9f61721631a1a48b323ffcb2bc88e6, type: 3}
    - time: 1.2
      value: {fileID: 21300000, guid: 4b0f856510f95d145beb4135fa3192ea, type: 3}
    - time: 1.3
      value: {fileID: 21300000, guid: a8fb8598755d9ef40b59d3c6bf6dc76f, type: 3}
    - time: 1.4
      value: {fileID: 21300000, guid: e345435d0e4a6544aa7a8b61b173eb0b, type: 3}
    - time: 1.5
      value: {fileID: 21300000, guid: 13198ce257f7dfb4eaf666a9409cd8b4, type: 3}
    - time: 1.6
      value: {fileID: 21300000, guid: c2c4b95a8fb39b34c888633d482680cf, type: 3}
    - time: 1.7
      value: {fileID: 21300000, guid: 3feebb2c15a9e484ab5441c5205caf14, type: 3}
    - time: 1.8
      value: {fileID: 21300000, guid: 163aceb08ab5de04a9c98440ad636bfe, type: 3}
    - time: 1.9
      value: {fileID: 21300000, guid: 498f4fd53bc35e14a8d60eb61d481221, type: 3}
    - time: 2
      value: {fileID: 21300000, guid: d846615a71286004c9b6cde9c758963f, type: 3}
    - time: 2.1
      value: {fileID: 21300000, guid: fafc4a3918069704eb0255ea017be8ee, type: 3}
    attribute: m_Sprite
    path: 
    classID: 212
    script: {fileID: 0}
  m_SampleRate: 10
  m_WrapMode: 0
  m_Bounds:
    m_Center: {x: 0, y: 0, z: 0}
    m_Extent: {x: 0, y: 0, z: 0}
  m_ClipBindingConstant:
    genericBindings:
    - serializedVersion: 2
      path: 0
      attribute: 0
      script: {fileID: 0}
      typeID: 212
      customType: 23
      isPPtrCurve: 1
    pptrCurveMapping:
    - {fileID: 21300000, guid: a2adc69f07e78b74f9d7197e5d5ab34c, type: 3}
    - {fileID: 21300000, guid: 25f45634eccaad84aa0a7fe2483729bb, type: 3}
    - {fileID: 21300000, guid: 2735a2b11acfbd74385e185b318d901a, type: 3}
    - {fileID: 21300000, guid: 926103e59028c334c90018ecffd636c8, type: 3}
    - {fileID: 21300000, guid: 2931d5bfc475c434096cad82b634139f, type: 3}
    - {fileID: 21300000, guid: e261f14569788e34a8c172e5e88f7584, type: 3}
    - {fileID: 21300000, guid: 4a7ac34032f806d4b8dfe73bd77b9118, type: 3}
    - {fileID: 21300000, guid: b44b3245fb0811848be56dd5a46bd8c8, type: 3}
    - {fileID: 21300000, guid: 9d4b5e86b41106d46807f8d36a44f7b8, type: 3}
    - {fileID: 21300000, guid: e14ae6364d843764695a0cd2210667da, type: 3}
    - {fileID: 21300000, guid: d9ed4ae16065bc64096e0692c55988b5, type: 3}
    - {fileID: 21300000, guid: 3c9f61721631a1a48b323ffcb2bc88e6, type: 3}
    - {fileID: 21300000, guid: 4b0f856510f95d145beb4135fa3192ea, type: 3}
    - {fileID: 21300000, guid: a8fb8598755d9ef40b59d3c6bf6dc76f, type: 3}
    - {fileID: 21300000, guid: e345435d0e4a6544aa7a8b61b173eb0b, type: 3}
    - {fileID: 21300000, guid: 13198ce257f7dfb4eaf666a9409cd8b4, type: 3}
    - {fileID: 21300000, guid: c2c4b95a8fb39b34c888633d482680cf, type: 3}
    - {fileID: 21300000, guid: 3feebb2c15a9e484ab5441c5205caf14, type: 3}
    - {fileID: 21300000, guid: 163aceb08ab5de04a9c98440ad636bfe, type: 3}
    - {fileID: 21300000, guid: 498f4fd53bc35e14a8d60eb61d481221, type: 3}
    - {fileID: 21300000, guid: d846615a71286004c9b6cde9c758963f, type: 3}
    - {fileID: 21300000, guid: fafc4a3918069704eb0255ea017be8ee, type: 3}
  m_AnimationClipSettings:
    serializedVersion: 2
    m_AdditiveReferencePoseClip: {fileID: 0}
    m_AdditiveReferencePoseTime: 0
    m_StartTime: 0
    m_StopTime: 2.1999998
    m_OrientationOffsetY: 0
    m_Level: 0
    m_CycleOffset: 0
    m_HasAdditiveReferencePose: 0
    m_LoopTime: 1
    m_LoopBlend: 0
    m_LoopBlendOrientation: 0
    m_LoopBlendPositionY: 0
    m_LoopBlendPositionXZ: 0
    m_KeepOriginalOrientation: 0
    m_KeepOriginalPositionY: 1
    m_KeepOriginalPositionXZ: 0
    m_HeightFromFeet: 0
    m_Mirror: 0
  m_EditorCurves: []
  m_EulerEditorCurves: []
  m_HasGenericRootTransform: 0
  m_HasMotionFloatCurves: 0
  m_Events: []
