%YAML 1.1
%TAG !u! tag:unity3d.com,2011:
--- !u!74 &7400000
AnimationClip:
  m_ObjectHideFlags: 0
  m_CorrespondingSourceObject: {fileID: 0}
  m_PrefabInstance: {fileID: 0}
  m_PrefabAsset: {fileID: 0}
  m_Name: Anim_PLT_Policeman_GetHit
  serializedVersion: 6
  m_Legacy: 0
  m_Compressed: 0
  m_UseHighQualityCurve: 1
  m_RotationCurves: []
  m_CompressedRotationCurves: []
  m_EulerCurves: []
  m_PositionCurves: []
  m_ScaleCurves: []
  m_FloatCurves: []
  m_PPtrCurves:
  - curve:
    - time: 0
      value: {fileID: 21300000, guid: 5d2f25fc448d6704e910005e2e3a2631, type: 3}
    - time: 0.06666667
      value: {fileID: 21300000, guid: 1f87b6c398c4ae34fb1b510ed52c7fea, type: 3}
    - time: 0.13333334
      value: {fileID: 21300000, guid: de7f766c75adf644da20006accfa1883, type: 3}
    - time: 0.2
      value: {fileID: 21300000, guid: b2a7737708625474082750899fcdc3a1, type: 3}
    - time: 0.26666668
      value: {fileID: 21300000, guid: 29f037ae70b3d0b43947e584d061ad1f, type: 3}
    - time: 0.33333334
      value: {fileID: 21300000, guid: b75596d6fa86d2c42a4b55f5340b3695, type: 3}
    - time: 0.4
      value: {fileID: 21300000, guid: 3a9532dcf7476d347b1647b646407fc5, type: 3}
    attribute: m_Sprite
    path: 
    classID: 212
    script: {fileID: 0}
  m_SampleRate: 15
  m_WrapMode: 0
  m_Bounds:
    m_Center: {x: 0, y: 0, z: 0}
    m_Extent: {x: 0, y: 0, z: 0}
  m_ClipBindingConstant:
    genericBindings:
    - serializedVersion: 2
      path: 0
      attribute: 0
      script: {fileID: 0}
      typeID: 212
      customType: 23
      isPPtrCurve: 1
    pptrCurveMapping:
    - {fileID: 21300000, guid: 5d2f25fc448d6704e910005e2e3a2631, type: 3}
    - {fileID: 21300000, guid: 1f87b6c398c4ae34fb1b510ed52c7fea, type: 3}
    - {fileID: 21300000, guid: de7f766c75adf644da20006accfa1883, type: 3}
    - {fileID: 21300000, guid: b2a7737708625474082750899fcdc3a1, type: 3}
    - {fileID: 21300000, guid: 29f037ae70b3d0b43947e584d061ad1f, type: 3}
    - {fileID: 21300000, guid: b75596d6fa86d2c42a4b55f5340b3695, type: 3}
    - {fileID: 21300000, guid: 3a9532dcf7476d347b1647b646407fc5, type: 3}
  m_AnimationClipSettings:
    serializedVersion: 2
    m_AdditiveReferencePoseClip: {fileID: 0}
    m_AdditiveReferencePoseTime: 0
    m_StartTime: 0
    m_StopTime: 0.46666667
    m_OrientationOffsetY: 0
    m_Level: 0
    m_CycleOffset: 0
    m_HasAdditiveReferencePose: 0
    m_LoopTime: 1
    m_LoopBlend: 0
    m_LoopBlendOrientation: 0
    m_LoopBlendPositionY: 0
    m_LoopBlendPositionXZ: 0
    m_KeepOriginalOrientation: 0
    m_KeepOriginalPositionY: 1
    m_KeepOriginalPositionXZ: 0
    m_HeightFromFeet: 0
    m_Mirror: 0
  m_EditorCurves: []
  m_EulerEditorCurves: []
  m_HasGenericRootTransform: 0
  m_HasMotionFloatCurves: 0
  m_Events: []
