%YAML 1.1
%TAG !u! tag:unity3d.com,2011:
--- !u!74 &7400000
AnimationClip:
  m_ObjectHideFlags: 0
  m_CorrespondingSourceObject: {fileID: 0}
  m_PrefabInstance: {fileID: 0}
  m_PrefabAsset: {fileID: 0}
  m_Name: Anim_PLT_Policeman_Death
  serializedVersion: 6
  m_Legacy: 0
  m_Compressed: 0
  m_UseHighQualityCurve: 1
  m_RotationCurves: []
  m_CompressedRotationCurves: []
  m_EulerCurves: []
  m_PositionCurves: []
  m_ScaleCurves: []
  m_FloatCurves: []
  m_PPtrCurves:
  - curve:
    - time: 0
      value: {fileID: 21300000, guid: aedf7232e01aa4a45afffd0ef20e277b, type: 3}
    - time: 0.07692308
      value: {fileID: 21300000, guid: 035fd315dee2eff47a64fcce8f314ce9, type: 3}
    - time: 0.15384616
      value: {fileID: 21300000, guid: ded2ddf2c323c52478bcfdd7b1bd8613, type: 3}
    - time: 0.23076923
      value: {fileID: 21300000, guid: 8b6c53523dc62164c8631a50909e2a88, type: 3}
    - time: 0.30769232
      value: {fileID: 21300000, guid: 66d30ec44a952524b9876314d71b43f3, type: 3}
    - time: 0.3846154
      value: {fileID: 21300000, guid: 6d36167e1ebc2fe45a56455d04499547, type: 3}
    - time: 0.46153846
      value: {fileID: 21300000, guid: 045493713629a9a46b415f003080c1f6, type: 3}
    - time: 0.53846157
      value: {fileID: 21300000, guid: b57b3cc6566312049a184178e11be654, type: 3}
    - time: 0.61538464
      value: {fileID: 21300000, guid: a3362c64b6c38ad4d946a66ba13ec3aa, type: 3}
    - time: 0.6923077
      value: {fileID: 21300000, guid: d48f1a86064fc7b42a0ac66a0e260ed1, type: 3}
    - time: 0.7692308
      value: {fileID: 21300000, guid: 6301bb8cc3137014ca68bf8dbf557931, type: 3}
    - time: 0.84615386
      value: {fileID: 21300000, guid: 85c1d21cfe2e3ff42aae895fc83f121c, type: 3}
    - time: 0.9230769
      value: {fileID: 21300000, guid: 3d63142b94bc812449f455a1684eac93, type: 3}
    - time: 1
      value: {fileID: 21300000, guid: 9182f8ef4e2c18149bae5dbb008a7f60, type: 3}
    attribute: m_Sprite
    path: 
    classID: 212
    script: {fileID: 0}
  m_SampleRate: 13
  m_WrapMode: 0
  m_Bounds:
    m_Center: {x: 0, y: 0, z: 0}
    m_Extent: {x: 0, y: 0, z: 0}
  m_ClipBindingConstant:
    genericBindings:
    - serializedVersion: 2
      path: 0
      attribute: 0
      script: {fileID: 0}
      typeID: 212
      customType: 23
      isPPtrCurve: 1
    pptrCurveMapping:
    - {fileID: 21300000, guid: aedf7232e01aa4a45afffd0ef20e277b, type: 3}
    - {fileID: 21300000, guid: 035fd315dee2eff47a64fcce8f314ce9, type: 3}
    - {fileID: 21300000, guid: ded2ddf2c323c52478bcfdd7b1bd8613, type: 3}
    - {fileID: 21300000, guid: 8b6c53523dc62164c8631a50909e2a88, type: 3}
    - {fileID: 21300000, guid: 66d30ec44a952524b9876314d71b43f3, type: 3}
    - {fileID: 21300000, guid: 6d36167e1ebc2fe45a56455d04499547, type: 3}
    - {fileID: 21300000, guid: 045493713629a9a46b415f003080c1f6, type: 3}
    - {fileID: 21300000, guid: b57b3cc6566312049a184178e11be654, type: 3}
    - {fileID: 21300000, guid: a3362c64b6c38ad4d946a66ba13ec3aa, type: 3}
    - {fileID: 21300000, guid: d48f1a86064fc7b42a0ac66a0e260ed1, type: 3}
    - {fileID: 21300000, guid: 6301bb8cc3137014ca68bf8dbf557931, type: 3}
    - {fileID: 21300000, guid: 85c1d21cfe2e3ff42aae895fc83f121c, type: 3}
    - {fileID: 21300000, guid: 3d63142b94bc812449f455a1684eac93, type: 3}
    - {fileID: 21300000, guid: 9182f8ef4e2c18149bae5dbb008a7f60, type: 3}
  m_AnimationClipSettings:
    serializedVersion: 2
    m_AdditiveReferencePoseClip: {fileID: 0}
    m_AdditiveReferencePoseTime: 0
    m_StartTime: 0
    m_StopTime: 1.0769231
    m_OrientationOffsetY: 0
    m_Level: 0
    m_CycleOffset: 0
    m_HasAdditiveReferencePose: 0
    m_LoopTime: 1
    m_LoopBlend: 0
    m_LoopBlendOrientation: 0
    m_LoopBlendPositionY: 0
    m_LoopBlendPositionXZ: 0
    m_KeepOriginalOrientation: 0
    m_KeepOriginalPositionY: 1
    m_KeepOriginalPositionXZ: 0
    m_HeightFromFeet: 0
    m_Mirror: 0
  m_EditorCurves: []
  m_EulerEditorCurves: []
  m_HasGenericRootTransform: 0
  m_HasMotionFloatCurves: 0
  m_Events: []
