%YAML 1.1
%TAG !u! tag:unity3d.com,2011:
--- !u!74 &7400000
AnimationClip:
  m_ObjectHideFlags: 0
  m_CorrespondingSourceObject: {fileID: 0}
  m_PrefabInstance: {fileID: 0}
  m_PrefabAsset: {fileID: 0}
  m_Name: Anim_Prisoner_Stand_Up_TR
  serializedVersion: 6
  m_Legacy: 0
  m_Compressed: 0
  m_UseHighQualityCurve: 1
  m_RotationCurves: []
  m_CompressedRotationCurves: []
  m_EulerCurves: []
  m_PositionCurves: []
  m_ScaleCurves: []
  m_FloatCurves: []
  m_PPtrCurves:
  - curve:
    - time: 0
      value: {fileID: 21300000, guid: a033de39a8dda5a479593f50fa001f4e, type: 3}
    - time: 0.1
      value: {fileID: 21300000, guid: e030057a909a15e4baafaa1cfd53329e, type: 3}
    - time: 0.2
      value: {fileID: 21300000, guid: 5221814a60e69114f91458fec8569fa7, type: 3}
    - time: 0.3
      value: {fileID: 21300000, guid: a32ccaa8d44e3b2428d92226cb67f5be, type: 3}
    - time: 0.4
      value: {fileID: 21300000, guid: fec939a594d04e2429542119495b8b05, type: 3}
    - time: 0.5
      value: {fileID: 21300000, guid: a82914aad85f65b4eae4d43dfefce450, type: 3}
    - time: 0.6
      value: {fileID: 21300000, guid: ed46940687374cf49886b79434d91a50, type: 3}
    - time: 0.7
      value: {fileID: 21300000, guid: bae3643516ad10247b073e9fca8819c3, type: 3}
    - time: 0.8
      value: {fileID: 21300000, guid: c9e46f6ef6ab83e49b329775f0abcd59, type: 3}
    - time: 0.9
      value: {fileID: 21300000, guid: 5740539c6110d654ebed78987ddf8fcf, type: 3}
    - time: 1
      value: {fileID: 21300000, guid: b2d53e8ccf0676a479a0a4e37175dd35, type: 3}
    - time: 1.1
      value: {fileID: 21300000, guid: d18c0789e25434d48bb81a032efaee62, type: 3}
    - time: 1.2
      value: {fileID: 21300000, guid: c40765e7b6c7d2548ab3285cdca26c8d, type: 3}
    - time: 1.3
      value: {fileID: 21300000, guid: b9392b44ff786654787ab5b71f3bef08, type: 3}
    - time: 1.4
      value: {fileID: 21300000, guid: 8178df8cd585c1045b40b09fff9f0c00, type: 3}
    - time: 1.5
      value: {fileID: 21300000, guid: df0e5f7b15c273742b032a37d03634b2, type: 3}
    - time: 1.6
      value: {fileID: 21300000, guid: 196176adbfe969c429d4f84e111fb699, type: 3}
    - time: 1.7
      value: {fileID: 21300000, guid: 3c41871ba566ba14b86694294d59e65b, type: 3}
    - time: 1.8
      value: {fileID: 21300000, guid: b3f41ff88cc36cd48ab258afed528c64, type: 3}
    - time: 1.9
      value: {fileID: 21300000, guid: 5d4c2882b25c43c4d947c75212cc309c, type: 3}
    - time: 2
      value: {fileID: 21300000, guid: 66aab25e6ffbdb6408fb93bbefd43713, type: 3}
    - time: 2.1
      value: {fileID: 21300000, guid: 5efb71cdbb3c9f04cb9c74c5dca2a243, type: 3}
    attribute: m_Sprite
    path: 
    classID: 212
    script: {fileID: 0}
  m_SampleRate: 10
  m_WrapMode: 0
  m_Bounds:
    m_Center: {x: 0, y: 0, z: 0}
    m_Extent: {x: 0, y: 0, z: 0}
  m_ClipBindingConstant:
    genericBindings:
    - serializedVersion: 2
      path: 0
      attribute: 0
      script: {fileID: 0}
      typeID: 212
      customType: 23
      isPPtrCurve: 1
    pptrCurveMapping:
    - {fileID: 21300000, guid: a033de39a8dda5a479593f50fa001f4e, type: 3}
    - {fileID: 21300000, guid: e030057a909a15e4baafaa1cfd53329e, type: 3}
    - {fileID: 21300000, guid: 5221814a60e69114f91458fec8569fa7, type: 3}
    - {fileID: 21300000, guid: a32ccaa8d44e3b2428d92226cb67f5be, type: 3}
    - {fileID: 21300000, guid: fec939a594d04e2429542119495b8b05, type: 3}
    - {fileID: 21300000, guid: a82914aad85f65b4eae4d43dfefce450, type: 3}
    - {fileID: 21300000, guid: ed46940687374cf49886b79434d91a50, type: 3}
    - {fileID: 21300000, guid: bae3643516ad10247b073e9fca8819c3, type: 3}
    - {fileID: 21300000, guid: c9e46f6ef6ab83e49b329775f0abcd59, type: 3}
    - {fileID: 21300000, guid: 5740539c6110d654ebed78987ddf8fcf, type: 3}
    - {fileID: 21300000, guid: b2d53e8ccf0676a479a0a4e37175dd35, type: 3}
    - {fileID: 21300000, guid: d18c0789e25434d48bb81a032efaee62, type: 3}
    - {fileID: 21300000, guid: c40765e7b6c7d2548ab3285cdca26c8d, type: 3}
    - {fileID: 21300000, guid: b9392b44ff786654787ab5b71f3bef08, type: 3}
    - {fileID: 21300000, guid: 8178df8cd585c1045b40b09fff9f0c00, type: 3}
    - {fileID: 21300000, guid: df0e5f7b15c273742b032a37d03634b2, type: 3}
    - {fileID: 21300000, guid: 196176adbfe969c429d4f84e111fb699, type: 3}
    - {fileID: 21300000, guid: 3c41871ba566ba14b86694294d59e65b, type: 3}
    - {fileID: 21300000, guid: b3f41ff88cc36cd48ab258afed528c64, type: 3}
    - {fileID: 21300000, guid: 5d4c2882b25c43c4d947c75212cc309c, type: 3}
    - {fileID: 21300000, guid: 66aab25e6ffbdb6408fb93bbefd43713, type: 3}
    - {fileID: 21300000, guid: 5efb71cdbb3c9f04cb9c74c5dca2a243, type: 3}
  m_AnimationClipSettings:
    serializedVersion: 2
    m_AdditiveReferencePoseClip: {fileID: 0}
    m_AdditiveReferencePoseTime: 0
    m_StartTime: 0
    m_StopTime: 2.1999998
    m_OrientationOffsetY: 0
    m_Level: 0
    m_CycleOffset: 0
    m_HasAdditiveReferencePose: 0
    m_LoopTime: 1
    m_LoopBlend: 0
    m_LoopBlendOrientation: 0
    m_LoopBlendPositionY: 0
    m_LoopBlendPositionXZ: 0
    m_KeepOriginalOrientation: 0
    m_KeepOriginalPositionY: 1
    m_KeepOriginalPositionXZ: 0
    m_HeightFromFeet: 0
    m_Mirror: 0
  m_EditorCurves: []
  m_EulerEditorCurves: []
  m_HasGenericRootTransform: 0
  m_HasMotionFloatCurves: 0
  m_Events: []
