%YAML 1.1
%TAG !u! tag:unity3d.com,2011:
--- !u!74 &7400000
AnimationClip:
  m_ObjectHideFlags: 0
  m_CorrespondingSourceObject: {fileID: 0}
  m_PrefabInstance: {fileID: 0}
  m_PrefabAsset: {fileID: 0}
  m_Name: Anim_Prisoner_Death_R
  serializedVersion: 6
  m_Legacy: 0
  m_Compressed: 0
  m_UseHighQualityCurve: 1
  m_RotationCurves: []
  m_CompressedRotationCurves: []
  m_EulerCurves: []
  m_PositionCurves: []
  m_ScaleCurves: []
  m_FloatCurves: []
  m_PPtrCurves:
  - curve:
    - time: 0
      value: {fileID: 21300000, guid: 9494200f83f145941b2a4597b7667a0c, type: 3}
    - time: 0.1
      value: {fileID: 21300000, guid: e5587d8aee3a49f46984b368687c96b4, type: 3}
    - time: 0.2
      value: {fileID: 21300000, guid: d79079b6a79a89b46a7fe0676cc239ec, type: 3}
    - time: 0.3
      value: {fileID: 21300000, guid: ec34283af1f2785438cd44f16ff09ba6, type: 3}
    - time: 0.4
      value: {fileID: 21300000, guid: 638bc49237330264e99898bce9088958, type: 3}
    - time: 0.5
      value: {fileID: 21300000, guid: d70e2e39a692e3f47ba5fff446c2afad, type: 3}
    - time: 0.6
      value: {fileID: 21300000, guid: 221d19f1fd2eb6a45a0707992fbe4b71, type: 3}
    - time: 0.7
      value: {fileID: 21300000, guid: 5ac3137c5ce9de14f831cc51dbb5bad5, type: 3}
    - time: 0.8
      value: {fileID: 21300000, guid: 13960c575a0d63b4da8cdd4351d985b0, type: 3}
    - time: 0.9
      value: {fileID: 21300000, guid: 74bb2d759b3f53e489942df0f230c08e, type: 3}
    - time: 1
      value: {fileID: 21300000, guid: 5c99cf296b0be974196c019403f57f6f, type: 3}
    - time: 1.1
      value: {fileID: 21300000, guid: 1eaf8ca68cd77994eaf13232c26baa96, type: 3}
    - time: 1.2
      value: {fileID: 21300000, guid: b867024d9d319484bb86705dd7953f76, type: 3}
    - time: 1.3
      value: {fileID: 21300000, guid: 93e09b9d8c844ab42843291cd8ec2c0f, type: 3}
    attribute: m_Sprite
    path: 
    classID: 212
    script: {fileID: 0}
  m_SampleRate: 10
  m_WrapMode: 0
  m_Bounds:
    m_Center: {x: 0, y: 0, z: 0}
    m_Extent: {x: 0, y: 0, z: 0}
  m_ClipBindingConstant:
    genericBindings:
    - serializedVersion: 2
      path: 0
      attribute: 0
      script: {fileID: 0}
      typeID: 212
      customType: 23
      isPPtrCurve: 1
    pptrCurveMapping:
    - {fileID: 21300000, guid: 9494200f83f145941b2a4597b7667a0c, type: 3}
    - {fileID: 21300000, guid: e5587d8aee3a49f46984b368687c96b4, type: 3}
    - {fileID: 21300000, guid: d79079b6a79a89b46a7fe0676cc239ec, type: 3}
    - {fileID: 21300000, guid: ec34283af1f2785438cd44f16ff09ba6, type: 3}
    - {fileID: 21300000, guid: 638bc49237330264e99898bce9088958, type: 3}
    - {fileID: 21300000, guid: d70e2e39a692e3f47ba5fff446c2afad, type: 3}
    - {fileID: 21300000, guid: 221d19f1fd2eb6a45a0707992fbe4b71, type: 3}
    - {fileID: 21300000, guid: 5ac3137c5ce9de14f831cc51dbb5bad5, type: 3}
    - {fileID: 21300000, guid: 13960c575a0d63b4da8cdd4351d985b0, type: 3}
    - {fileID: 21300000, guid: 74bb2d759b3f53e489942df0f230c08e, type: 3}
    - {fileID: 21300000, guid: 5c99cf296b0be974196c019403f57f6f, type: 3}
    - {fileID: 21300000, guid: 1eaf8ca68cd77994eaf13232c26baa96, type: 3}
    - {fileID: 21300000, guid: b867024d9d319484bb86705dd7953f76, type: 3}
    - {fileID: 21300000, guid: 93e09b9d8c844ab42843291cd8ec2c0f, type: 3}
  m_AnimationClipSettings:
    serializedVersion: 2
    m_AdditiveReferencePoseClip: {fileID: 0}
    m_AdditiveReferencePoseTime: 0
    m_StartTime: 0
    m_StopTime: 1.4
    m_OrientationOffsetY: 0
    m_Level: 0
    m_CycleOffset: 0
    m_HasAdditiveReferencePose: 0
    m_LoopTime: 1
    m_LoopBlend: 0
    m_LoopBlendOrientation: 0
    m_LoopBlendPositionY: 0
    m_LoopBlendPositionXZ: 0
    m_KeepOriginalOrientation: 0
    m_KeepOriginalPositionY: 1
    m_KeepOriginalPositionXZ: 0
    m_HeightFromFeet: 0
    m_Mirror: 0
  m_EditorCurves: []
  m_EulerEditorCurves: []
  m_HasGenericRootTransform: 0
  m_HasMotionFloatCurves: 0
  m_Events: []
