%YAML 1.1
%TAG !u! tag:unity3d.com,2011:
--- !u!74 &7400000
AnimationClip:
  m_ObjectHideFlags: 0
  m_CorrespondingSourceObject: {fileID: 0}
  m_PrefabInstance: {fileID: 0}
  m_PrefabAsset: {fileID: 0}
  m_Name: Anim_Policeman_Idle_LT
  serializedVersion: 6
  m_Legacy: 0
  m_Compressed: 0
  m_UseHighQualityCurve: 1
  m_RotationCurves: []
  m_CompressedRotationCurves: []
  m_EulerCurves: []
  m_PositionCurves: []
  m_ScaleCurves: []
  m_FloatCurves: []
  m_PPtrCurves:
  - curve:
    - time: 0
      value: {fileID: 21300000, guid: 25ea9c99ff089db4f931ae22bdf7e270, type: 3}
    - time: 0.07692308
      value: {fileID: 21300000, guid: 2da6d018d49f9c24294fc1f320d94da0, type: 3}
    - time: 0.15384616
      value: {fileID: 21300000, guid: c0156e38cf9aff246ad8204593ce60b4, type: 3}
    - time: 0.23076923
      value: {fileID: 21300000, guid: 696c69f1f4a5d9943b2a4fb0f6cbc2ea, type: 3}
    - time: 0.30769232
      value: {fileID: 21300000, guid: 2d99e431591b8fd48b29739b3b4671e5, type: 3}
    - time: 0.3846154
      value: {fileID: 21300000, guid: 2fc7958ffc77ef041bc0bec2ca04db5c, type: 3}
    - time: 0.46153846
      value: {fileID: 21300000, guid: 69ef473685d5d4242b59950664013226, type: 3}
    - time: 0.53846157
      value: {fileID: 21300000, guid: 4258fb004caf04f47bb207a4aef10525, type: 3}
    - time: 0.61538464
      value: {fileID: 21300000, guid: 66172ddd0b0e5c54b8ef98cab1478dcf, type: 3}
    - time: 0.6923077
      value: {fileID: 21300000, guid: c12913e0a40e9784f8d1a44b7e2b5978, type: 3}
    - time: 0.7692308
      value: {fileID: 21300000, guid: 81b3d2cb1fb77f04482526bffb61dd57, type: 3}
    - time: 0.84615386
      value: {fileID: 21300000, guid: bb57059384231ac4bb22869aec41f1ae, type: 3}
    - time: 0.9230769
      value: {fileID: 21300000, guid: a939247e052101e47b806c3476abf44a, type: 3}
    - time: 1
      value: {fileID: 21300000, guid: c460c2e263473e44b81f510f8f9630c6, type: 3}
    - time: 1.0769231
      value: {fileID: 21300000, guid: 0ee3519f2331fc544b52762c1aa4193a, type: 3}
    attribute: m_Sprite
    path: 
    classID: 212
    script: {fileID: 0}
  m_SampleRate: 13
  m_WrapMode: 0
  m_Bounds:
    m_Center: {x: 0, y: 0, z: 0}
    m_Extent: {x: 0, y: 0, z: 0}
  m_ClipBindingConstant:
    genericBindings:
    - serializedVersion: 2
      path: 0
      attribute: 0
      script: {fileID: 0}
      typeID: 212
      customType: 23
      isPPtrCurve: 1
    pptrCurveMapping:
    - {fileID: 21300000, guid: 25ea9c99ff089db4f931ae22bdf7e270, type: 3}
    - {fileID: 21300000, guid: 2da6d018d49f9c24294fc1f320d94da0, type: 3}
    - {fileID: 21300000, guid: c0156e38cf9aff246ad8204593ce60b4, type: 3}
    - {fileID: 21300000, guid: 696c69f1f4a5d9943b2a4fb0f6cbc2ea, type: 3}
    - {fileID: 21300000, guid: 2d99e431591b8fd48b29739b3b4671e5, type: 3}
    - {fileID: 21300000, guid: 2fc7958ffc77ef041bc0bec2ca04db5c, type: 3}
    - {fileID: 21300000, guid: 69ef473685d5d4242b59950664013226, type: 3}
    - {fileID: 21300000, guid: 4258fb004caf04f47bb207a4aef10525, type: 3}
    - {fileID: 21300000, guid: 66172ddd0b0e5c54b8ef98cab1478dcf, type: 3}
    - {fileID: 21300000, guid: c12913e0a40e9784f8d1a44b7e2b5978, type: 3}
    - {fileID: 21300000, guid: 81b3d2cb1fb77f04482526bffb61dd57, type: 3}
    - {fileID: 21300000, guid: bb57059384231ac4bb22869aec41f1ae, type: 3}
    - {fileID: 21300000, guid: a939247e052101e47b806c3476abf44a, type: 3}
    - {fileID: 21300000, guid: c460c2e263473e44b81f510f8f9630c6, type: 3}
    - {fileID: 21300000, guid: 0ee3519f2331fc544b52762c1aa4193a, type: 3}
  m_AnimationClipSettings:
    serializedVersion: 2
    m_AdditiveReferencePoseClip: {fileID: 0}
    m_AdditiveReferencePoseTime: 0
    m_StartTime: 0
    m_StopTime: 1.1538463
    m_OrientationOffsetY: 0
    m_Level: 0
    m_CycleOffset: 0
    m_HasAdditiveReferencePose: 0
    m_LoopTime: 1
    m_LoopBlend: 0
    m_LoopBlendOrientation: 0
    m_LoopBlendPositionY: 0
    m_LoopBlendPositionXZ: 0
    m_KeepOriginalOrientation: 0
    m_KeepOriginalPositionY: 1
    m_KeepOriginalPositionXZ: 0
    m_HeightFromFeet: 0
    m_Mirror: 0
  m_EditorCurves: []
  m_EulerEditorCurves: []
  m_HasGenericRootTransform: 0
  m_HasMotionFloatCurves: 0
  m_Events: []
