%YAML 1.1
%TAG !u! tag:unity3d.com,2011:
--- !u!74 &7400000
AnimationClip:
  m_ObjectHideFlags: 0
  m_CorrespondingSourceObject: {fileID: 0}
  m_PrefabInstance: {fileID: 0}
  m_PrefabAsset: {fileID: 0}
  m_Name: Anim_Biohazard_Attack_RB
  serializedVersion: 6
  m_Legacy: 0
  m_Compressed: 0
  m_UseHighQualityCurve: 1
  m_RotationCurves: []
  m_CompressedRotationCurves: []
  m_EulerCurves: []
  m_PositionCurves: []
  m_ScaleCurves: []
  m_FloatCurves: []
  m_PPtrCurves:
  - curve:
    - time: 0
      value: {fileID: 21300000, guid: c9638b96f61a87d4989ad4318e7605af, type: 3}
    - time: 0.083333336
      value: {fileID: 21300000, guid: d8bb8484b8de0ac4da8ce1bb8becde4c, type: 3}
    - time: 0.16666667
      value: {fileID: 21300000, guid: dcc70f9dc4ab4aa4da18af6449343829, type: 3}
    - time: 0.25
      value: {fileID: 21300000, guid: e7da857a2041f814a9708a3c23b1f1e5, type: 3}
    - time: 0.33333334
      value: {fileID: 21300000, guid: 3fe9930694c58f945ad5653fc7f11cb9, type: 3}
    - time: 0.41666666
      value: {fileID: 21300000, guid: f2d487ae1ff60f64998ba459230bf26a, type: 3}
    - time: 0.5
      value: {fileID: 21300000, guid: 4633f932af2497f449f0f64f626ffabf, type: 3}
    - time: 0.5833333
      value: {fileID: 21300000, guid: 2b506a983b1d05148839c4246f3fd345, type: 3}
    - time: 0.6666667
      value: {fileID: 21300000, guid: e0360e7cda99b0246b3f9422f99db397, type: 3}
    attribute: m_Sprite
    path: 
    classID: 212
    script: {fileID: 0}
  m_SampleRate: 12
  m_WrapMode: 0
  m_Bounds:
    m_Center: {x: 0, y: 0, z: 0}
    m_Extent: {x: 0, y: 0, z: 0}
  m_ClipBindingConstant:
    genericBindings:
    - serializedVersion: 2
      path: 0
      attribute: 0
      script: {fileID: 0}
      typeID: 212
      customType: 23
      isPPtrCurve: 1
    pptrCurveMapping:
    - {fileID: 21300000, guid: c9638b96f61a87d4989ad4318e7605af, type: 3}
    - {fileID: 21300000, guid: d8bb8484b8de0ac4da8ce1bb8becde4c, type: 3}
    - {fileID: 21300000, guid: dcc70f9dc4ab4aa4da18af6449343829, type: 3}
    - {fileID: 21300000, guid: e7da857a2041f814a9708a3c23b1f1e5, type: 3}
    - {fileID: 21300000, guid: 3fe9930694c58f945ad5653fc7f11cb9, type: 3}
    - {fileID: 21300000, guid: f2d487ae1ff60f64998ba459230bf26a, type: 3}
    - {fileID: 21300000, guid: 4633f932af2497f449f0f64f626ffabf, type: 3}
    - {fileID: 21300000, guid: 2b506a983b1d05148839c4246f3fd345, type: 3}
    - {fileID: 21300000, guid: e0360e7cda99b0246b3f9422f99db397, type: 3}
  m_AnimationClipSettings:
    serializedVersion: 2
    m_AdditiveReferencePoseClip: {fileID: 0}
    m_AdditiveReferencePoseTime: 0
    m_StartTime: 0
    m_StopTime: 0.75
    m_OrientationOffsetY: 0
    m_Level: 0
    m_CycleOffset: 0
    m_HasAdditiveReferencePose: 0
    m_LoopTime: 1
    m_LoopBlend: 0
    m_LoopBlendOrientation: 0
    m_LoopBlendPositionY: 0
    m_LoopBlendPositionXZ: 0
    m_KeepOriginalOrientation: 0
    m_KeepOriginalPositionY: 1
    m_KeepOriginalPositionXZ: 0
    m_HeightFromFeet: 0
    m_Mirror: 0
  m_EditorCurves: []
  m_EulerEditorCurves: []
  m_HasGenericRootTransform: 0
  m_HasMotionFloatCurves: 0
  m_Events: []
