%YAML 1.1
%TAG !u! tag:unity3d.com,2011:
--- !u!74 &7400000
AnimationClip:
  m_ObjectHideFlags: 0
  m_CorrespondingSourceObject: {fileID: 0}
  m_PrefabInstance: {fileID: 0}
  m_PrefabAsset: {fileID: 0}
  m_Name: Anim_Infected_Death_RB
  serializedVersion: 6
  m_Legacy: 0
  m_Compressed: 0
  m_UseHighQualityCurve: 1
  m_RotationCurves: []
  m_CompressedRotationCurves: []
  m_EulerCurves: []
  m_PositionCurves: []
  m_ScaleCurves: []
  m_FloatCurves: []
  m_PPtrCurves:
  - curve:
    - time: 0
      value: {fileID: 21300000, guid: a4fe8f47532086a44939e797f993dcf7, type: 3}
    - time: 0.1
      value: {fileID: 21300000, guid: b03633b107f9ff84ba701d0f863ce10c, type: 3}
    - time: 0.2
      value: {fileID: 21300000, guid: 79ab6caf99ffe06408c75c0a8eeaddfb, type: 3}
    - time: 0.3
      value: {fileID: 21300000, guid: 6fe75bf1cf270f54fbcd268d4aa699ba, type: 3}
    - time: 0.4
      value: {fileID: 21300000, guid: 1a12151f72d26e941af3a20c8f097fb7, type: 3}
    - time: 0.5
      value: {fileID: 21300000, guid: 64aa1000b96d1834cb0cb9e383ceaa54, type: 3}
    - time: 0.6
      value: {fileID: 21300000, guid: aea3db74598126642a7362949600ad48, type: 3}
    - time: 0.7
      value: {fileID: 21300000, guid: 9b555747fc7f949408ee8eb9269edb39, type: 3}
    - time: 0.8
      value: {fileID: 21300000, guid: 1768f259a7aac59449ad09e10db0c190, type: 3}
    - time: 0.9
      value: {fileID: 21300000, guid: 561312d46f639664faedddbd840f7cbe, type: 3}
    - time: 1
      value: {fileID: 21300000, guid: aa5b1b2bf1ee5ad43985bef34321a5aa, type: 3}
    - time: 1.1
      value: {fileID: 21300000, guid: f21d4a881826bbe48be651f7c3f656c1, type: 3}
    - time: 1.2
      value: {fileID: 21300000, guid: 033c015e32549e842b28081ce0d36aa8, type: 3}
    - time: 1.3
      value: {fileID: 21300000, guid: f2404a238433d1f43aee08bd3446cef0, type: 3}
    attribute: m_Sprite
    path: 
    classID: 212
    script: {fileID: 0}
  m_SampleRate: 10
  m_WrapMode: 0
  m_Bounds:
    m_Center: {x: 0, y: 0, z: 0}
    m_Extent: {x: 0, y: 0, z: 0}
  m_ClipBindingConstant:
    genericBindings:
    - serializedVersion: 2
      path: 0
      attribute: 0
      script: {fileID: 0}
      typeID: 212
      customType: 23
      isPPtrCurve: 1
    pptrCurveMapping:
    - {fileID: 21300000, guid: a4fe8f47532086a44939e797f993dcf7, type: 3}
    - {fileID: 21300000, guid: b03633b107f9ff84ba701d0f863ce10c, type: 3}
    - {fileID: 21300000, guid: 79ab6caf99ffe06408c75c0a8eeaddfb, type: 3}
    - {fileID: 21300000, guid: 6fe75bf1cf270f54fbcd268d4aa699ba, type: 3}
    - {fileID: 21300000, guid: 1a12151f72d26e941af3a20c8f097fb7, type: 3}
    - {fileID: 21300000, guid: 64aa1000b96d1834cb0cb9e383ceaa54, type: 3}
    - {fileID: 21300000, guid: aea3db74598126642a7362949600ad48, type: 3}
    - {fileID: 21300000, guid: 9b555747fc7f949408ee8eb9269edb39, type: 3}
    - {fileID: 21300000, guid: 1768f259a7aac59449ad09e10db0c190, type: 3}
    - {fileID: 21300000, guid: 561312d46f639664faedddbd840f7cbe, type: 3}
    - {fileID: 21300000, guid: aa5b1b2bf1ee5ad43985bef34321a5aa, type: 3}
    - {fileID: 21300000, guid: f21d4a881826bbe48be651f7c3f656c1, type: 3}
    - {fileID: 21300000, guid: 033c015e32549e842b28081ce0d36aa8, type: 3}
    - {fileID: 21300000, guid: f2404a238433d1f43aee08bd3446cef0, type: 3}
  m_AnimationClipSettings:
    serializedVersion: 2
    m_AdditiveReferencePoseClip: {fileID: 0}
    m_AdditiveReferencePoseTime: 0
    m_StartTime: 0
    m_StopTime: 1.4
    m_OrientationOffsetY: 0
    m_Level: 0
    m_CycleOffset: 0
    m_HasAdditiveReferencePose: 0
    m_LoopTime: 1
    m_LoopBlend: 0
    m_LoopBlendOrientation: 0
    m_LoopBlendPositionY: 0
    m_LoopBlendPositionXZ: 0
    m_KeepOriginalOrientation: 0
    m_KeepOriginalPositionY: 1
    m_KeepOriginalPositionXZ: 0
    m_HeightFromFeet: 0
    m_Mirror: 0
  m_EditorCurves: []
  m_EulerEditorCurves: []
  m_HasGenericRootTransform: 0
  m_HasMotionFloatCurves: 0
  m_Events: []
