%YAML 1.1
%TAG !u! tag:unity3d.com,2011:
--- !u!74 &7400000
AnimationClip:
  m_ObjectHideFlags: 0
  m_CorrespondingSourceObject: {fileID: 0}
  m_PrefabInstance: {fileID: 0}
  m_PrefabAsset: {fileID: 0}
  m_Name: Anim_Infected_Death_TR
  serializedVersion: 6
  m_Legacy: 0
  m_Compressed: 0
  m_UseHighQualityCurve: 1
  m_RotationCurves: []
  m_CompressedRotationCurves: []
  m_EulerCurves: []
  m_PositionCurves: []
  m_ScaleCurves: []
  m_FloatCurves: []
  m_PPtrCurves:
  - curve:
    - time: 0
      value: {fileID: 21300000, guid: 390a68f2153fc774fb986f58f726da7d, type: 3}
    - time: 0.1
      value: {fileID: 21300000, guid: 2f4e7b5c9c8ead84896c5ff6736acc55, type: 3}
    - time: 0.2
      value: {fileID: 21300000, guid: 19b2745d06af2e045b395abc4881255a, type: 3}
    - time: 0.3
      value: {fileID: 21300000, guid: ed9dfd438c406c84f8c1339eb67235c4, type: 3}
    - time: 0.4
      value: {fileID: 21300000, guid: aff168ff85c6d0f4aaed72d668c812c6, type: 3}
    - time: 0.5
      value: {fileID: 21300000, guid: 060e4815486049a4baedf8a00d3091c1, type: 3}
    - time: 0.6
      value: {fileID: 21300000, guid: c13072626c87e254c9950714b1d72c45, type: 3}
    - time: 0.7
      value: {fileID: 21300000, guid: 430cf1576d162b04d86576a432ff4eb3, type: 3}
    - time: 0.8
      value: {fileID: 21300000, guid: 12cd5e039fa6dcd4a852ced729810d51, type: 3}
    - time: 0.9
      value: {fileID: 21300000, guid: 3b2e95b2d83afcc498cd1ef6458837db, type: 3}
    - time: 1
      value: {fileID: 21300000, guid: ae400791959087944b95c45db022d299, type: 3}
    - time: 1.1
      value: {fileID: 21300000, guid: 20b84cf9b28de284fa2c7629a849470a, type: 3}
    - time: 1.2
      value: {fileID: 21300000, guid: 2f7b3eed732906a4c98e622b894e792a, type: 3}
    - time: 1.3
      value: {fileID: 21300000, guid: dacb54697b6ded146a5cd502508b3bd1, type: 3}
    attribute: m_Sprite
    path: 
    classID: 212
    script: {fileID: 0}
  m_SampleRate: 10
  m_WrapMode: 0
  m_Bounds:
    m_Center: {x: 0, y: 0, z: 0}
    m_Extent: {x: 0, y: 0, z: 0}
  m_ClipBindingConstant:
    genericBindings:
    - serializedVersion: 2
      path: 0
      attribute: 0
      script: {fileID: 0}
      typeID: 212
      customType: 23
      isPPtrCurve: 1
    pptrCurveMapping:
    - {fileID: 21300000, guid: 390a68f2153fc774fb986f58f726da7d, type: 3}
    - {fileID: 21300000, guid: 2f4e7b5c9c8ead84896c5ff6736acc55, type: 3}
    - {fileID: 21300000, guid: 19b2745d06af2e045b395abc4881255a, type: 3}
    - {fileID: 21300000, guid: ed9dfd438c406c84f8c1339eb67235c4, type: 3}
    - {fileID: 21300000, guid: aff168ff85c6d0f4aaed72d668c812c6, type: 3}
    - {fileID: 21300000, guid: 060e4815486049a4baedf8a00d3091c1, type: 3}
    - {fileID: 21300000, guid: c13072626c87e254c9950714b1d72c45, type: 3}
    - {fileID: 21300000, guid: 430cf1576d162b04d86576a432ff4eb3, type: 3}
    - {fileID: 21300000, guid: 12cd5e039fa6dcd4a852ced729810d51, type: 3}
    - {fileID: 21300000, guid: 3b2e95b2d83afcc498cd1ef6458837db, type: 3}
    - {fileID: 21300000, guid: ae400791959087944b95c45db022d299, type: 3}
    - {fileID: 21300000, guid: 20b84cf9b28de284fa2c7629a849470a, type: 3}
    - {fileID: 21300000, guid: 2f7b3eed732906a4c98e622b894e792a, type: 3}
    - {fileID: 21300000, guid: dacb54697b6ded146a5cd502508b3bd1, type: 3}
  m_AnimationClipSettings:
    serializedVersion: 2
    m_AdditiveReferencePoseClip: {fileID: 0}
    m_AdditiveReferencePoseTime: 0
    m_StartTime: 0
    m_StopTime: 1.4
    m_OrientationOffsetY: 0
    m_Level: 0
    m_CycleOffset: 0
    m_HasAdditiveReferencePose: 0
    m_LoopTime: 1
    m_LoopBlend: 0
    m_LoopBlendOrientation: 0
    m_LoopBlendPositionY: 0
    m_LoopBlendPositionXZ: 0
    m_KeepOriginalOrientation: 0
    m_KeepOriginalPositionY: 1
    m_KeepOriginalPositionXZ: 0
    m_HeightFromFeet: 0
    m_Mirror: 0
  m_EditorCurves: []
  m_EulerEditorCurves: []
  m_HasGenericRootTransform: 0
  m_HasMotionFloatCurves: 0
  m_Events: []
