%YAML 1.1
%TAG !u! tag:unity3d.com,2011:
--- !u!74 &7400000
AnimationClip:
  m_ObjectHideFlags: 0
  m_CorrespondingSourceObject: {fileID: 0}
  m_PrefabInstance: {fileID: 0}
  m_PrefabAsset: {fileID: 0}
  m_Name: Anim_Infected_Death_R
  serializedVersion: 6
  m_Legacy: 0
  m_Compressed: 0
  m_UseHighQualityCurve: 1
  m_RotationCurves: []
  m_CompressedRotationCurves: []
  m_EulerCurves: []
  m_PositionCurves: []
  m_ScaleCurves: []
  m_FloatCurves: []
  m_PPtrCurves:
  - curve:
    - time: 0
      value: {fileID: 21300000, guid: eb2a6316a269ec147a8a1b96c6b54743, type: 3}
    - time: 0.1
      value: {fileID: 21300000, guid: 69fa06cb62254464abcc36724ebefe6f, type: 3}
    - time: 0.2
      value: {fileID: 21300000, guid: d7bdeabca688a8c458a074d8fe416aa5, type: 3}
    - time: 0.3
      value: {fileID: 21300000, guid: 2df9e0ad09b762f49bb57ae2d6ec2ba8, type: 3}
    - time: 0.4
      value: {fileID: 21300000, guid: 5cd3bb1cb3e097e4ab36b3de03bebdee, type: 3}
    - time: 0.5
      value: {fileID: 21300000, guid: 790789ce0ee62324eaad51cf272ac65f, type: 3}
    - time: 0.6
      value: {fileID: 21300000, guid: 62883f897f63ce744b9b268e97642adf, type: 3}
    - time: 0.7
      value: {fileID: 21300000, guid: c213265557024ce41ae9117f616231a7, type: 3}
    - time: 0.8
      value: {fileID: 21300000, guid: c3cc1f0a02a48304db136d95200e5fd5, type: 3}
    - time: 0.9
      value: {fileID: 21300000, guid: 34b617b5dc5000e41a055faee2502b9e, type: 3}
    - time: 1
      value: {fileID: 21300000, guid: 3abcb42fd3c246a43ad5f00cd4e691cf, type: 3}
    - time: 1.1
      value: {fileID: 21300000, guid: 4240e9f9670c43547bcbd95ddf85835d, type: 3}
    - time: 1.2
      value: {fileID: 21300000, guid: 9cbd00371240da14ca940f150eef1437, type: 3}
    - time: 1.3
      value: {fileID: 21300000, guid: 177fb885ef3b67247a523c0dae3511fd, type: 3}
    attribute: m_Sprite
    path: 
    classID: 212
    script: {fileID: 0}
  m_SampleRate: 10
  m_WrapMode: 0
  m_Bounds:
    m_Center: {x: 0, y: 0, z: 0}
    m_Extent: {x: 0, y: 0, z: 0}
  m_ClipBindingConstant:
    genericBindings:
    - serializedVersion: 2
      path: 0
      attribute: 0
      script: {fileID: 0}
      typeID: 212
      customType: 23
      isPPtrCurve: 1
    pptrCurveMapping:
    - {fileID: 21300000, guid: eb2a6316a269ec147a8a1b96c6b54743, type: 3}
    - {fileID: 21300000, guid: 69fa06cb62254464abcc36724ebefe6f, type: 3}
    - {fileID: 21300000, guid: d7bdeabca688a8c458a074d8fe416aa5, type: 3}
    - {fileID: 21300000, guid: 2df9e0ad09b762f49bb57ae2d6ec2ba8, type: 3}
    - {fileID: 21300000, guid: 5cd3bb1cb3e097e4ab36b3de03bebdee, type: 3}
    - {fileID: 21300000, guid: 790789ce0ee62324eaad51cf272ac65f, type: 3}
    - {fileID: 21300000, guid: 62883f897f63ce744b9b268e97642adf, type: 3}
    - {fileID: 21300000, guid: c213265557024ce41ae9117f616231a7, type: 3}
    - {fileID: 21300000, guid: c3cc1f0a02a48304db136d95200e5fd5, type: 3}
    - {fileID: 21300000, guid: 34b617b5dc5000e41a055faee2502b9e, type: 3}
    - {fileID: 21300000, guid: 3abcb42fd3c246a43ad5f00cd4e691cf, type: 3}
    - {fileID: 21300000, guid: 4240e9f9670c43547bcbd95ddf85835d, type: 3}
    - {fileID: 21300000, guid: 9cbd00371240da14ca940f150eef1437, type: 3}
    - {fileID: 21300000, guid: 177fb885ef3b67247a523c0dae3511fd, type: 3}
  m_AnimationClipSettings:
    serializedVersion: 2
    m_AdditiveReferencePoseClip: {fileID: 0}
    m_AdditiveReferencePoseTime: 0
    m_StartTime: 0
    m_StopTime: 1.4
    m_OrientationOffsetY: 0
    m_Level: 0
    m_CycleOffset: 0
    m_HasAdditiveReferencePose: 0
    m_LoopTime: 1
    m_LoopBlend: 0
    m_LoopBlendOrientation: 0
    m_LoopBlendPositionY: 0
    m_LoopBlendPositionXZ: 0
    m_KeepOriginalOrientation: 0
    m_KeepOriginalPositionY: 1
    m_KeepOriginalPositionXZ: 0
    m_HeightFromFeet: 0
    m_Mirror: 0
  m_EditorCurves: []
  m_EulerEditorCurves: []
  m_HasGenericRootTransform: 0
  m_HasMotionFloatCurves: 0
  m_Events: []
