%YAML 1.1
%TAG !u! tag:unity3d.com,2011:
--- !u!74 &7400000
AnimationClip:
  m_ObjectHideFlags: 0
  m_CorrespondingSourceObject: {fileID: 0}
  m_PrefabInstance: {fileID: 0}
  m_PrefabAsset: {fileID: 0}
  m_Name: Anim_Infected_Death_T
  serializedVersion: 6
  m_Legacy: 0
  m_Compressed: 0
  m_UseHighQualityCurve: 1
  m_RotationCurves: []
  m_CompressedRotationCurves: []
  m_EulerCurves: []
  m_PositionCurves: []
  m_ScaleCurves: []
  m_FloatCurves: []
  m_PPtrCurves:
  - curve:
    - time: 0
      value: {fileID: 21300000, guid: e3b4fdcd81d2a63468a51c1ed41ee145, type: 3}
    - time: 0.1
      value: {fileID: 21300000, guid: f042615288a7ccd418286f8bbfc77077, type: 3}
    - time: 0.2
      value: {fileID: 21300000, guid: b274dc3fa49e7d543944793ca6e16b18, type: 3}
    - time: 0.3
      value: {fileID: 21300000, guid: 7ec04a8d087ba6d418dba80f0805e876, type: 3}
    - time: 0.4
      value: {fileID: 21300000, guid: 209d7fb5c62754f468914f945e616329, type: 3}
    - time: 0.5
      value: {fileID: 21300000, guid: f96dd14105abb1e40ab6fd99d544757e, type: 3}
    - time: 0.6
      value: {fileID: 21300000, guid: 67b26c177c002024b893ec0141864b8d, type: 3}
    - time: 0.7
      value: {fileID: 21300000, guid: 903a81b9bd85f5f4caa9156a7080b8b8, type: 3}
    - time: 0.8
      value: {fileID: 21300000, guid: 75612eaea99f2a94288db50581b2aa11, type: 3}
    - time: 0.9
      value: {fileID: 21300000, guid: 15a814e8a424430468ad2e0758152a68, type: 3}
    - time: 1
      value: {fileID: 21300000, guid: 7508ecb7df2a1b24aa808a41a9150c6b, type: 3}
    - time: 1.1
      value: {fileID: 21300000, guid: 55fd58a8e2d64fb4cb9ae9a4af2e94ff, type: 3}
    - time: 1.2
      value: {fileID: 21300000, guid: 5d5196a089927d1419613db221e3150c, type: 3}
    - time: 1.3
      value: {fileID: 21300000, guid: f1771d219884cd741bc85e81125db320, type: 3}
    attribute: m_Sprite
    path: 
    classID: 212
    script: {fileID: 0}
  m_SampleRate: 10
  m_WrapMode: 0
  m_Bounds:
    m_Center: {x: 0, y: 0, z: 0}
    m_Extent: {x: 0, y: 0, z: 0}
  m_ClipBindingConstant:
    genericBindings:
    - serializedVersion: 2
      path: 0
      attribute: 0
      script: {fileID: 0}
      typeID: 212
      customType: 23
      isPPtrCurve: 1
    pptrCurveMapping:
    - {fileID: 21300000, guid: e3b4fdcd81d2a63468a51c1ed41ee145, type: 3}
    - {fileID: 21300000, guid: f042615288a7ccd418286f8bbfc77077, type: 3}
    - {fileID: 21300000, guid: b274dc3fa49e7d543944793ca6e16b18, type: 3}
    - {fileID: 21300000, guid: 7ec04a8d087ba6d418dba80f0805e876, type: 3}
    - {fileID: 21300000, guid: 209d7fb5c62754f468914f945e616329, type: 3}
    - {fileID: 21300000, guid: f96dd14105abb1e40ab6fd99d544757e, type: 3}
    - {fileID: 21300000, guid: 67b26c177c002024b893ec0141864b8d, type: 3}
    - {fileID: 21300000, guid: 903a81b9bd85f5f4caa9156a7080b8b8, type: 3}
    - {fileID: 21300000, guid: 75612eaea99f2a94288db50581b2aa11, type: 3}
    - {fileID: 21300000, guid: 15a814e8a424430468ad2e0758152a68, type: 3}
    - {fileID: 21300000, guid: 7508ecb7df2a1b24aa808a41a9150c6b, type: 3}
    - {fileID: 21300000, guid: 55fd58a8e2d64fb4cb9ae9a4af2e94ff, type: 3}
    - {fileID: 21300000, guid: 5d5196a089927d1419613db221e3150c, type: 3}
    - {fileID: 21300000, guid: f1771d219884cd741bc85e81125db320, type: 3}
  m_AnimationClipSettings:
    serializedVersion: 2
    m_AdditiveReferencePoseClip: {fileID: 0}
    m_AdditiveReferencePoseTime: 0
    m_StartTime: 0
    m_StopTime: 1.4
    m_OrientationOffsetY: 0
    m_Level: 0
    m_CycleOffset: 0
    m_HasAdditiveReferencePose: 0
    m_LoopTime: 1
    m_LoopBlend: 0
    m_LoopBlendOrientation: 0
    m_LoopBlendPositionY: 0
    m_LoopBlendPositionXZ: 0
    m_KeepOriginalOrientation: 0
    m_KeepOriginalPositionY: 1
    m_KeepOriginalPositionXZ: 0
    m_HeightFromFeet: 0
    m_Mirror: 0
  m_EditorCurves: []
  m_EulerEditorCurves: []
  m_HasGenericRootTransform: 0
  m_HasMotionFloatCurves: 0
  m_Events: []
