%YAML 1.1
%TAG !u! tag:unity3d.com,2011:
--- !u!74 &7400000
AnimationClip:
  m_ObjectHideFlags: 0
  m_CorrespondingSourceObject: {fileID: 0}
  m_PrefabInstance: {fileID: 0}
  m_PrefabAsset: {fileID: 0}
  m_Name: Anim_TD_Prisoner_Idle
  serializedVersion: 6
  m_Legacy: 0
  m_Compressed: 0
  m_UseHighQualityCurve: 1
  m_RotationCurves: []
  m_CompressedRotationCurves: []
  m_EulerCurves: []
  m_PositionCurves: []
  m_ScaleCurves: []
  m_FloatCurves: []
  m_PPtrCurves:
  - curve:
    - time: 0
      value: {fileID: 21300000, guid: 52b38d1234bf5044db3801f1910bea8d, type: 3}
    - time: 0.07692308
      value: {fileID: 21300000, guid: 39abf6072f731624690f6faa0cfc41fd, type: 3}
    - time: 0.15384616
      value: {fileID: 21300000, guid: 3f0dfc12d45373042b8c300a96901a49, type: 3}
    - time: 0.23076923
      value: {fileID: 21300000, guid: 391bfb6bf11415c489b04890603a9a24, type: 3}
    - time: 0.30769232
      value: {fileID: 21300000, guid: de35f87228dcea643b746a07c0cd1e87, type: 3}
    - time: 0.3846154
      value: {fileID: 21300000, guid: e13e4208fc43a2044aba456c764f2252, type: 3}
    - time: 0.46153846
      value: {fileID: 21300000, guid: 66554dc5b8eb456468409938b3694933, type: 3}
    - time: 0.53846157
      value: {fileID: 21300000, guid: ba824f0820fa55948ae40d5e8c1cbe36, type: 3}
    - time: 0.61538464
      value: {fileID: 21300000, guid: 196a85b909d33504abee0a493bbe8122, type: 3}
    - time: 0.6923077
      value: {fileID: 21300000, guid: 149fdb8dda194eb4da77f4f263ace306, type: 3}
    - time: 0.7692308
      value: {fileID: 21300000, guid: c8e7645f85b25be47b102a70220832c5, type: 3}
    - time: 0.84615386
      value: {fileID: 21300000, guid: e13ec7c0086892140aa1724db5d702fa, type: 3}
    - time: 0.9230769
      value: {fileID: 21300000, guid: 6b4d383f5a6642248a0dcce8427ddcb0, type: 3}
    - time: 1
      value: {fileID: 21300000, guid: 226e10d79b1e7dd4ab39761ef9cdddd9, type: 3}
    - time: 1.0769231
      value: {fileID: 21300000, guid: ad2542d6651943b489e72dc65e5fcd91, type: 3}
    attribute: m_Sprite
    path: 
    classID: 212
    script: {fileID: 0}
  m_SampleRate: 13
  m_WrapMode: 0
  m_Bounds:
    m_Center: {x: 0, y: 0, z: 0}
    m_Extent: {x: 0, y: 0, z: 0}
  m_ClipBindingConstant:
    genericBindings:
    - serializedVersion: 2
      path: 0
      attribute: 0
      script: {fileID: 0}
      typeID: 212
      customType: 23
      isPPtrCurve: 1
    pptrCurveMapping:
    - {fileID: 21300000, guid: 52b38d1234bf5044db3801f1910bea8d, type: 3}
    - {fileID: 21300000, guid: 39abf6072f731624690f6faa0cfc41fd, type: 3}
    - {fileID: 21300000, guid: 3f0dfc12d45373042b8c300a96901a49, type: 3}
    - {fileID: 21300000, guid: 391bfb6bf11415c489b04890603a9a24, type: 3}
    - {fileID: 21300000, guid: de35f87228dcea643b746a07c0cd1e87, type: 3}
    - {fileID: 21300000, guid: e13e4208fc43a2044aba456c764f2252, type: 3}
    - {fileID: 21300000, guid: 66554dc5b8eb456468409938b3694933, type: 3}
    - {fileID: 21300000, guid: ba824f0820fa55948ae40d5e8c1cbe36, type: 3}
    - {fileID: 21300000, guid: 196a85b909d33504abee0a493bbe8122, type: 3}
    - {fileID: 21300000, guid: 149fdb8dda194eb4da77f4f263ace306, type: 3}
    - {fileID: 21300000, guid: c8e7645f85b25be47b102a70220832c5, type: 3}
    - {fileID: 21300000, guid: e13ec7c0086892140aa1724db5d702fa, type: 3}
    - {fileID: 21300000, guid: 6b4d383f5a6642248a0dcce8427ddcb0, type: 3}
    - {fileID: 21300000, guid: 226e10d79b1e7dd4ab39761ef9cdddd9, type: 3}
    - {fileID: 21300000, guid: ad2542d6651943b489e72dc65e5fcd91, type: 3}
  m_AnimationClipSettings:
    serializedVersion: 2
    m_AdditiveReferencePoseClip: {fileID: 0}
    m_AdditiveReferencePoseTime: 0
    m_StartTime: 0
    m_StopTime: 1.1538463
    m_OrientationOffsetY: 0
    m_Level: 0
    m_CycleOffset: 0
    m_HasAdditiveReferencePose: 0
    m_LoopTime: 1
    m_LoopBlend: 0
    m_LoopBlendOrientation: 0
    m_LoopBlendPositionY: 0
    m_LoopBlendPositionXZ: 0
    m_KeepOriginalOrientation: 0
    m_KeepOriginalPositionY: 1
    m_KeepOriginalPositionXZ: 0
    m_HeightFromFeet: 0
    m_Mirror: 0
  m_EditorCurves: []
  m_EulerEditorCurves: []
  m_HasGenericRootTransform: 0
  m_HasMotionFloatCurves: 0
  m_Events: []
