%YAML 1.1
%TAG !u! tag:unity3d.com,2011:
--- !u!74 &7400000
AnimationClip:
  m_ObjectHideFlags: 0
  m_CorrespondingSourceObject: {fileID: 0}
  m_PrefabInstance: {fileID: 0}
  m_PrefabAsset: {fileID: 0}
  m_Name: Anim_PLT_Infected_Attack
  serializedVersion: 6
  m_Legacy: 0
  m_Compressed: 0
  m_UseHighQualityCurve: 1
  m_RotationCurves: []
  m_CompressedRotationCurves: []
  m_EulerCurves: []
  m_PositionCurves: []
  m_ScaleCurves: []
  m_FloatCurves: []
  m_PPtrCurves:
  - curve:
    - time: 0
      value: {fileID: 21300000, guid: c680b056d7f82ac438ff1df71a78ff79, type: 3}
    - time: 0.07692308
      value: {fileID: 21300000, guid: d4cf84514d7a9dc48a6cfb86cc6156bb, type: 3}
    - time: 0.15384616
      value: {fileID: 21300000, guid: 3be22075bf952a146b483d01a910037a, type: 3}
    - time: 0.23076923
      value: {fileID: 21300000, guid: 8e22b6ae3b8827442ab83770a1f3a333, type: 3}
    - time: 0.30769232
      value: {fileID: 21300000, guid: 84e99b8ffaf2eee4e8802de5257e1430, type: 3}
    - time: 0.3846154
      value: {fileID: 21300000, guid: 085ae2678c144a84e8edc09d7118ff0d, type: 3}
    - time: 0.46153846
      value: {fileID: 21300000, guid: 61ca32abe6e24a849b517968dc4e67bb, type: 3}
    - time: 0.53846157
      value: {fileID: 21300000, guid: 02ae64f9eb8fd4447a8838f7192b3a1d, type: 3}
    - time: 0.61538464
      value: {fileID: 21300000, guid: 30712528034fd4a4683372c75e44f2dd, type: 3}
    attribute: m_Sprite
    path: 
    classID: 212
    script: {fileID: 0}
  m_SampleRate: 13
  m_WrapMode: 0
  m_Bounds:
    m_Center: {x: 0, y: 0, z: 0}
    m_Extent: {x: 0, y: 0, z: 0}
  m_ClipBindingConstant:
    genericBindings:
    - serializedVersion: 2
      path: 0
      attribute: 0
      script: {fileID: 0}
      typeID: 212
      customType: 23
      isPPtrCurve: 1
    pptrCurveMapping:
    - {fileID: 21300000, guid: c680b056d7f82ac438ff1df71a78ff79, type: 3}
    - {fileID: 21300000, guid: d4cf84514d7a9dc48a6cfb86cc6156bb, type: 3}
    - {fileID: 21300000, guid: 3be22075bf952a146b483d01a910037a, type: 3}
    - {fileID: 21300000, guid: 8e22b6ae3b8827442ab83770a1f3a333, type: 3}
    - {fileID: 21300000, guid: 84e99b8ffaf2eee4e8802de5257e1430, type: 3}
    - {fileID: 21300000, guid: 085ae2678c144a84e8edc09d7118ff0d, type: 3}
    - {fileID: 21300000, guid: 61ca32abe6e24a849b517968dc4e67bb, type: 3}
    - {fileID: 21300000, guid: 02ae64f9eb8fd4447a8838f7192b3a1d, type: 3}
    - {fileID: 21300000, guid: 30712528034fd4a4683372c75e44f2dd, type: 3}
  m_AnimationClipSettings:
    serializedVersion: 2
    m_AdditiveReferencePoseClip: {fileID: 0}
    m_AdditiveReferencePoseTime: 0
    m_StartTime: 0
    m_StopTime: 0.6923077
    m_OrientationOffsetY: 0
    m_Level: 0
    m_CycleOffset: 0
    m_HasAdditiveReferencePose: 0
    m_LoopTime: 1
    m_LoopBlend: 0
    m_LoopBlendOrientation: 0
    m_LoopBlendPositionY: 0
    m_LoopBlendPositionXZ: 0
    m_KeepOriginalOrientation: 0
    m_KeepOriginalPositionY: 1
    m_KeepOriginalPositionXZ: 0
    m_HeightFromFeet: 0
    m_Mirror: 0
  m_EditorCurves: []
  m_EulerEditorCurves: []
  m_HasGenericRootTransform: 0
  m_HasMotionFloatCurves: 0
  m_Events: []
