%YAML 1.1
%TAG !u! tag:unity3d.com,2011:
--- !u!74 &7400000
AnimationClip:
  m_ObjectHideFlags: 0
  m_CorrespondingSourceObject: {fileID: 0}
  m_PrefabInstance: {fileID: 0}
  m_PrefabAsset: {fileID: 0}
  m_Name: Anim_PLT_Infected_Idle
  serializedVersion: 6
  m_Legacy: 0
  m_Compressed: 0
  m_UseHighQualityCurve: 1
  m_RotationCurves: []
  m_CompressedRotationCurves: []
  m_EulerCurves: []
  m_PositionCurves: []
  m_ScaleCurves: []
  m_FloatCurves: []
  m_PPtrCurves:
  - curve:
    - time: 0
      value: {fileID: 21300000, guid: 9d978c4b78e122c41bc85f6de96d6326, type: 3}
    - time: 0.07692308
      value: {fileID: 21300000, guid: 868b369ae521e1542aecc28b1c62fdba, type: 3}
    - time: 0.15384616
      value: {fileID: 21300000, guid: 0fd9cac457d0add4c995781807faba7a, type: 3}
    - time: 0.23076923
      value: {fileID: 21300000, guid: 603948ea82eece34db3a527f3a522df9, type: 3}
    - time: 0.30769232
      value: {fileID: 21300000, guid: a53958d54b8832b4b8cf397713a6d299, type: 3}
    - time: 0.3846154
      value: {fileID: 21300000, guid: 545edfad73ff9b847887941b8592a1ec, type: 3}
    - time: 0.46153846
      value: {fileID: 21300000, guid: ce98f7f2035b99c4aad212b4d43fd284, type: 3}
    - time: 0.53846157
      value: {fileID: 21300000, guid: 8ac8990fd203dad42bb66c3e83ee9447, type: 3}
    - time: 0.61538464
      value: {fileID: 21300000, guid: 04ab961f27066c242ae754ee276a10fc, type: 3}
    - time: 0.6923077
      value: {fileID: 21300000, guid: 6c4d830bdbd87054d990e9170577739a, type: 3}
    - time: 0.7692308
      value: {fileID: 21300000, guid: 635d4a44f1990f74aa7091bc94dbbf35, type: 3}
    - time: 0.84615386
      value: {fileID: 21300000, guid: 87ca814c7d674624a814d2f412ddf185, type: 3}
    - time: 0.9230769
      value: {fileID: 21300000, guid: 57a101bd9c4990a43a617c19dda481f1, type: 3}
    - time: 1
      value: {fileID: 21300000, guid: 0fe8c8f819b8bb94d9de5d3aac6ff8d1, type: 3}
    - time: 1.0769231
      value: {fileID: 21300000, guid: d2e0bcd84c4423341ba6b2bcb823db9f, type: 3}
    attribute: m_Sprite
    path: 
    classID: 212
    script: {fileID: 0}
  m_SampleRate: 13
  m_WrapMode: 0
  m_Bounds:
    m_Center: {x: 0, y: 0, z: 0}
    m_Extent: {x: 0, y: 0, z: 0}
  m_ClipBindingConstant:
    genericBindings:
    - serializedVersion: 2
      path: 0
      attribute: 0
      script: {fileID: 0}
      typeID: 212
      customType: 23
      isPPtrCurve: 1
    pptrCurveMapping:
    - {fileID: 21300000, guid: 9d978c4b78e122c41bc85f6de96d6326, type: 3}
    - {fileID: 21300000, guid: 868b369ae521e1542aecc28b1c62fdba, type: 3}
    - {fileID: 21300000, guid: 0fd9cac457d0add4c995781807faba7a, type: 3}
    - {fileID: 21300000, guid: 603948ea82eece34db3a527f3a522df9, type: 3}
    - {fileID: 21300000, guid: a53958d54b8832b4b8cf397713a6d299, type: 3}
    - {fileID: 21300000, guid: 545edfad73ff9b847887941b8592a1ec, type: 3}
    - {fileID: 21300000, guid: ce98f7f2035b99c4aad212b4d43fd284, type: 3}
    - {fileID: 21300000, guid: 8ac8990fd203dad42bb66c3e83ee9447, type: 3}
    - {fileID: 21300000, guid: 04ab961f27066c242ae754ee276a10fc, type: 3}
    - {fileID: 21300000, guid: 6c4d830bdbd87054d990e9170577739a, type: 3}
    - {fileID: 21300000, guid: 635d4a44f1990f74aa7091bc94dbbf35, type: 3}
    - {fileID: 21300000, guid: 87ca814c7d674624a814d2f412ddf185, type: 3}
    - {fileID: 21300000, guid: 57a101bd9c4990a43a617c19dda481f1, type: 3}
    - {fileID: 21300000, guid: 0fe8c8f819b8bb94d9de5d3aac6ff8d1, type: 3}
    - {fileID: 21300000, guid: d2e0bcd84c4423341ba6b2bcb823db9f, type: 3}
  m_AnimationClipSettings:
    serializedVersion: 2
    m_AdditiveReferencePoseClip: {fileID: 0}
    m_AdditiveReferencePoseTime: 0
    m_StartTime: 0
    m_StopTime: 1.1538463
    m_OrientationOffsetY: 0
    m_Level: 0
    m_CycleOffset: 0
    m_HasAdditiveReferencePose: 0
    m_LoopTime: 1
    m_LoopBlend: 0
    m_LoopBlendOrientation: 0
    m_LoopBlendPositionY: 0
    m_LoopBlendPositionXZ: 0
    m_KeepOriginalOrientation: 0
    m_KeepOriginalPositionY: 1
    m_KeepOriginalPositionXZ: 0
    m_HeightFromFeet: 0
    m_Mirror: 0
  m_EditorCurves: []
  m_EulerEditorCurves: []
  m_HasGenericRootTransform: 0
  m_HasMotionFloatCurves: 0
  m_Events: []
