%YAML 1.1
%TAG !u! tag:unity3d.com,2011:
--- !u!74 &7400000
AnimationClip:
  m_ObjectHideFlags: 0
  m_CorrespondingSourceObject: {fileID: 0}
  m_PrefabInstance: {fileID: 0}
  m_PrefabAsset: {fileID: 0}
  m_Name: Anim_Mechanic_Attack_RB
  serializedVersion: 6
  m_Legacy: 0
  m_Compressed: 0
  m_UseHighQualityCurve: 1
  m_RotationCurves: []
  m_CompressedRotationCurves: []
  m_EulerCurves: []
  m_PositionCurves: []
  m_ScaleCurves: []
  m_FloatCurves: []
  m_PPtrCurves:
  - curve:
    - time: 0
      value: {fileID: 21300000, guid: cea0cc3cf3b852644975f05d120aa35b, type: 3}
    - time: 0.083333336
      value: {fileID: 21300000, guid: 57d3c84cefd81a444aa8610b68f99e5f, type: 3}
    - time: 0.16666667
      value: {fileID: 21300000, guid: 50fd7de58635fed44822ca4b182fc07b, type: 3}
    - time: 0.25
      value: {fileID: 21300000, guid: dd6375897e194a34a85928e8476d5868, type: 3}
    - time: 0.33333334
      value: {fileID: 21300000, guid: caa4aa1eeb737f54a8d15e371466bbab, type: 3}
    - time: 0.41666666
      value: {fileID: 21300000, guid: 955a06422f9eca946a2d8aaac6a18388, type: 3}
    - time: 0.5
      value: {fileID: 21300000, guid: 4daff217bda9ad74b8b696b252dcddb2, type: 3}
    - time: 0.5833333
      value: {fileID: 21300000, guid: 873e53b0953211a45811caf760b60a90, type: 3}
    - time: 0.6666667
      value: {fileID: 21300000, guid: 737741c750caad1408db7a7db3da15d5, type: 3}
    attribute: m_Sprite
    path: 
    classID: 212
    script: {fileID: 0}
  m_SampleRate: 12
  m_WrapMode: 0
  m_Bounds:
    m_Center: {x: 0, y: 0, z: 0}
    m_Extent: {x: 0, y: 0, z: 0}
  m_ClipBindingConstant:
    genericBindings:
    - serializedVersion: 2
      path: 0
      attribute: 0
      script: {fileID: 0}
      typeID: 212
      customType: 23
      isPPtrCurve: 1
    pptrCurveMapping:
    - {fileID: 21300000, guid: cea0cc3cf3b852644975f05d120aa35b, type: 3}
    - {fileID: 21300000, guid: 57d3c84cefd81a444aa8610b68f99e5f, type: 3}
    - {fileID: 21300000, guid: 50fd7de58635fed44822ca4b182fc07b, type: 3}
    - {fileID: 21300000, guid: dd6375897e194a34a85928e8476d5868, type: 3}
    - {fileID: 21300000, guid: caa4aa1eeb737f54a8d15e371466bbab, type: 3}
    - {fileID: 21300000, guid: 955a06422f9eca946a2d8aaac6a18388, type: 3}
    - {fileID: 21300000, guid: 4daff217bda9ad74b8b696b252dcddb2, type: 3}
    - {fileID: 21300000, guid: 873e53b0953211a45811caf760b60a90, type: 3}
    - {fileID: 21300000, guid: 737741c750caad1408db7a7db3da15d5, type: 3}
  m_AnimationClipSettings:
    serializedVersion: 2
    m_AdditiveReferencePoseClip: {fileID: 0}
    m_AdditiveReferencePoseTime: 0
    m_StartTime: 0
    m_StopTime: 0.75
    m_OrientationOffsetY: 0
    m_Level: 0
    m_CycleOffset: 0
    m_HasAdditiveReferencePose: 0
    m_LoopTime: 1
    m_LoopBlend: 0
    m_LoopBlendOrientation: 0
    m_LoopBlendPositionY: 0
    m_LoopBlendPositionXZ: 0
    m_KeepOriginalOrientation: 0
    m_KeepOriginalPositionY: 1
    m_KeepOriginalPositionXZ: 0
    m_HeightFromFeet: 0
    m_Mirror: 0
  m_EditorCurves: []
  m_EulerEditorCurves: []
  m_HasGenericRootTransform: 0
  m_HasMotionFloatCurves: 0
  m_Events: []
