%YAML 1.1
%TAG !u! tag:unity3d.com,2011:
--- !u!74 &7400000
AnimationClip:
  m_ObjectHideFlags: 0
  m_CorrespondingSourceObject: {fileID: 0}
  m_PrefabInstance: {fileID: 0}
  m_PrefabAsset: {fileID: 0}
  m_Name: Anim_Policeman_Attack_TR
  serializedVersion: 6
  m_Legacy: 0
  m_Compressed: 0
  m_UseHighQualityCurve: 1
  m_RotationCurves: []
  m_CompressedRotationCurves: []
  m_EulerCurves: []
  m_PositionCurves: []
  m_ScaleCurves: []
  m_FloatCurves: []
  m_PPtrCurves:
  - curve:
    - time: 0
      value: {fileID: 21300000, guid: 7b0f6e831b4532f4e82b230594c7e7fd, type: 3}
    - time: 0.083333336
      value: {fileID: 21300000, guid: 40a9edcb8955d8c4a891c97568b4d9d9, type: 3}
    - time: 0.16666667
      value: {fileID: 21300000, guid: 8bc5feea3d2c3854dbf10c592accdb6d, type: 3}
    - time: 0.25
      value: {fileID: 21300000, guid: 763f3f87189563e4fa564259c4e0a475, type: 3}
    - time: 0.33333334
      value: {fileID: 21300000, guid: 18cd865a4499fbc468385f171fe5ed2e, type: 3}
    - time: 0.41666666
      value: {fileID: 21300000, guid: 4552126c6a05f474d9f7d2c59959464d, type: 3}
    - time: 0.5
      value: {fileID: 21300000, guid: 6c9daceccc561e74e8c985118f3e94b9, type: 3}
    - time: 0.5833333
      value: {fileID: 21300000, guid: de73f2e8f92c58f47be12600f455884f, type: 3}
    - time: 0.6666667
      value: {fileID: 21300000, guid: 5e81e4f5d3e13e44a958ce118fcf3a53, type: 3}
    attribute: m_Sprite
    path: 
    classID: 212
    script: {fileID: 0}
  m_SampleRate: 12
  m_WrapMode: 0
  m_Bounds:
    m_Center: {x: 0, y: 0, z: 0}
    m_Extent: {x: 0, y: 0, z: 0}
  m_ClipBindingConstant:
    genericBindings:
    - serializedVersion: 2
      path: 0
      attribute: 0
      script: {fileID: 0}
      typeID: 212
      customType: 23
      isPPtrCurve: 1
    pptrCurveMapping:
    - {fileID: 21300000, guid: 7b0f6e831b4532f4e82b230594c7e7fd, type: 3}
    - {fileID: 21300000, guid: 40a9edcb8955d8c4a891c97568b4d9d9, type: 3}
    - {fileID: 21300000, guid: 8bc5feea3d2c3854dbf10c592accdb6d, type: 3}
    - {fileID: 21300000, guid: 763f3f87189563e4fa564259c4e0a475, type: 3}
    - {fileID: 21300000, guid: 18cd865a4499fbc468385f171fe5ed2e, type: 3}
    - {fileID: 21300000, guid: 4552126c6a05f474d9f7d2c59959464d, type: 3}
    - {fileID: 21300000, guid: 6c9daceccc561e74e8c985118f3e94b9, type: 3}
    - {fileID: 21300000, guid: de73f2e8f92c58f47be12600f455884f, type: 3}
    - {fileID: 21300000, guid: 5e81e4f5d3e13e44a958ce118fcf3a53, type: 3}
  m_AnimationClipSettings:
    serializedVersion: 2
    m_AdditiveReferencePoseClip: {fileID: 0}
    m_AdditiveReferencePoseTime: 0
    m_StartTime: 0
    m_StopTime: 0.75
    m_OrientationOffsetY: 0
    m_Level: 0
    m_CycleOffset: 0
    m_HasAdditiveReferencePose: 0
    m_LoopTime: 1
    m_LoopBlend: 0
    m_LoopBlendOrientation: 0
    m_LoopBlendPositionY: 0
    m_LoopBlendPositionXZ: 0
    m_KeepOriginalOrientation: 0
    m_KeepOriginalPositionY: 1
    m_KeepOriginalPositionXZ: 0
    m_HeightFromFeet: 0
    m_Mirror: 0
  m_EditorCurves: []
  m_EulerEditorCurves: []
  m_HasGenericRootTransform: 0
  m_HasMotionFloatCurves: 0
  m_Events: []
