%YAML 1.1
%TAG !u! tag:unity3d.com,2011:
--- !u!74 &7400000
AnimationClip:
  m_ObjectHideFlags: 0
  m_CorrespondingSourceObject: {fileID: 0}
  m_PrefabInstance: {fileID: 0}
  m_PrefabAsset: {fileID: 0}
  m_Name: Anim_Mechanic_Stand_Up_RB
  serializedVersion: 6
  m_Legacy: 0
  m_Compressed: 0
  m_UseHighQualityCurve: 1
  m_RotationCurves: []
  m_CompressedRotationCurves: []
  m_EulerCurves: []
  m_PositionCurves: []
  m_ScaleCurves: []
  m_FloatCurves: []
  m_PPtrCurves:
  - curve:
    - time: 0
      value: {fileID: 21300000, guid: d95f892d535cbf448b7bb6da3a7059cc, type: 3}
    - time: 0.1
      value: {fileID: 21300000, guid: 6cdcdd430b549bc4eb695d377455f33a, type: 3}
    - time: 0.2
      value: {fileID: 21300000, guid: 8c4c92793f450ae48bfe7aca713e8869, type: 3}
    - time: 0.3
      value: {fileID: 21300000, guid: ff9207e6e8effeb4581c046fae7bac2b, type: 3}
    - time: 0.4
      value: {fileID: 21300000, guid: 49778ad40f9185049a1bc1eb70ea3fd3, type: 3}
    - time: 0.5
      value: {fileID: 21300000, guid: 699fdb33b3daac54dabdb637361dc843, type: 3}
    - time: 0.6
      value: {fileID: 21300000, guid: b99d1a9fcdda8554dba9d2748d0a3797, type: 3}
    - time: 0.7
      value: {fileID: 21300000, guid: 378e6c801a0fc2c4386b85f0c6363292, type: 3}
    - time: 0.8
      value: {fileID: 21300000, guid: f273b5050f6a6654a802a45fd727370e, type: 3}
    - time: 0.9
      value: {fileID: 21300000, guid: c7c1bcf9220c59849886622c225995aa, type: 3}
    - time: 1
      value: {fileID: 21300000, guid: 4047fd2c82972c24bb0467e4eae08839, type: 3}
    - time: 1.1
      value: {fileID: 21300000, guid: 68badf19a0e46df4ba8f5921470a4fdf, type: 3}
    - time: 1.2
      value: {fileID: 21300000, guid: 797c6c61ffe07034a8fb03d3578044e5, type: 3}
    - time: 1.3
      value: {fileID: 21300000, guid: 541c4aedd0ff8cb41b97851c77ed3de3, type: 3}
    - time: 1.4
      value: {fileID: 21300000, guid: 6e52f56bcad3ea8468eea7dc8b5c16d3, type: 3}
    - time: 1.5
      value: {fileID: 21300000, guid: 14d7c97a1c6097e40a2130e5a31544b3, type: 3}
    - time: 1.6
      value: {fileID: 21300000, guid: 6801bc209248e134eb358ef9b1f504c0, type: 3}
    - time: 1.7
      value: {fileID: 21300000, guid: 0f592251f127fef408616189b96387d3, type: 3}
    - time: 1.8
      value: {fileID: 21300000, guid: 6ae7cda0beaf2864496239bc6a83c482, type: 3}
    - time: 1.9
      value: {fileID: 21300000, guid: 8ba440d716aa88142a97d0cf8842b6d4, type: 3}
    - time: 2
      value: {fileID: 21300000, guid: 3d84cad91cd7ace48b8fd3330192a2e4, type: 3}
    - time: 2.1
      value: {fileID: 21300000, guid: deebac1f9585c7747a70565766ca334b, type: 3}
    attribute: m_Sprite
    path: 
    classID: 212
    script: {fileID: 0}
  m_SampleRate: 10
  m_WrapMode: 0
  m_Bounds:
    m_Center: {x: 0, y: 0, z: 0}
    m_Extent: {x: 0, y: 0, z: 0}
  m_ClipBindingConstant:
    genericBindings:
    - serializedVersion: 2
      path: 0
      attribute: 0
      script: {fileID: 0}
      typeID: 212
      customType: 23
      isPPtrCurve: 1
    pptrCurveMapping:
    - {fileID: 21300000, guid: d95f892d535cbf448b7bb6da3a7059cc, type: 3}
    - {fileID: 21300000, guid: 6cdcdd430b549bc4eb695d377455f33a, type: 3}
    - {fileID: 21300000, guid: 8c4c92793f450ae48bfe7aca713e8869, type: 3}
    - {fileID: 21300000, guid: ff9207e6e8effeb4581c046fae7bac2b, type: 3}
    - {fileID: 21300000, guid: 49778ad40f9185049a1bc1eb70ea3fd3, type: 3}
    - {fileID: 21300000, guid: 699fdb33b3daac54dabdb637361dc843, type: 3}
    - {fileID: 21300000, guid: b99d1a9fcdda8554dba9d2748d0a3797, type: 3}
    - {fileID: 21300000, guid: 378e6c801a0fc2c4386b85f0c6363292, type: 3}
    - {fileID: 21300000, guid: f273b5050f6a6654a802a45fd727370e, type: 3}
    - {fileID: 21300000, guid: c7c1bcf9220c59849886622c225995aa, type: 3}
    - {fileID: 21300000, guid: 4047fd2c82972c24bb0467e4eae08839, type: 3}
    - {fileID: 21300000, guid: 68badf19a0e46df4ba8f5921470a4fdf, type: 3}
    - {fileID: 21300000, guid: 797c6c61ffe07034a8fb03d3578044e5, type: 3}
    - {fileID: 21300000, guid: 541c4aedd0ff8cb41b97851c77ed3de3, type: 3}
    - {fileID: 21300000, guid: 6e52f56bcad3ea8468eea7dc8b5c16d3, type: 3}
    - {fileID: 21300000, guid: 14d7c97a1c6097e40a2130e5a31544b3, type: 3}
    - {fileID: 21300000, guid: 6801bc209248e134eb358ef9b1f504c0, type: 3}
    - {fileID: 21300000, guid: 0f592251f127fef408616189b96387d3, type: 3}
    - {fileID: 21300000, guid: 6ae7cda0beaf2864496239bc6a83c482, type: 3}
    - {fileID: 21300000, guid: 8ba440d716aa88142a97d0cf8842b6d4, type: 3}
    - {fileID: 21300000, guid: 3d84cad91cd7ace48b8fd3330192a2e4, type: 3}
    - {fileID: 21300000, guid: deebac1f9585c7747a70565766ca334b, type: 3}
  m_AnimationClipSettings:
    serializedVersion: 2
    m_AdditiveReferencePoseClip: {fileID: 0}
    m_AdditiveReferencePoseTime: 0
    m_StartTime: 0
    m_StopTime: 2.1999998
    m_OrientationOffsetY: 0
    m_Level: 0
    m_CycleOffset: 0
    m_HasAdditiveReferencePose: 0
    m_LoopTime: 1
    m_LoopBlend: 0
    m_LoopBlendOrientation: 0
    m_LoopBlendPositionY: 0
    m_LoopBlendPositionXZ: 0
    m_KeepOriginalOrientation: 0
    m_KeepOriginalPositionY: 1
    m_KeepOriginalPositionXZ: 0
    m_HeightFromFeet: 0
    m_Mirror: 0
  m_EditorCurves: []
  m_EulerEditorCurves: []
  m_HasGenericRootTransform: 0
  m_HasMotionFloatCurves: 0
  m_Events: []
