%YAML 1.1
%TAG !u! tag:unity3d.com,2011:
--- !u!74 &7400000
AnimationClip:
  m_ObjectHideFlags: 0
  m_CorrespondingSourceObject: {fileID: 0}
  m_PrefabInstance: {fileID: 0}
  m_PrefabAsset: {fileID: 0}
  m_Name: Anim_Biohazard_Death_T
  serializedVersion: 6
  m_Legacy: 0
  m_Compressed: 0
  m_UseHighQualityCurve: 1
  m_RotationCurves: []
  m_CompressedRotationCurves: []
  m_EulerCurves: []
  m_PositionCurves: []
  m_ScaleCurves: []
  m_FloatCurves: []
  m_PPtrCurves:
  - curve:
    - time: 0
      value: {fileID: 21300000, guid: f39cbea4d912f5145873d12cc74bcdf2, type: 3}
    - time: 0.1
      value: {fileID: 21300000, guid: a908edeefb2cfe64791a9ec77a0d115b, type: 3}
    - time: 0.2
      value: {fileID: 21300000, guid: 88f248c6e332a6f419587be0b2d390fd, type: 3}
    - time: 0.3
      value: {fileID: 21300000, guid: 732f0c74df3616f42a79962a4673b607, type: 3}
    - time: 0.4
      value: {fileID: 21300000, guid: 3941cf32368302448abbc05684157872, type: 3}
    - time: 0.5
      value: {fileID: 21300000, guid: cf971dfdfe6a3bb42ac9f11c92f1b8d7, type: 3}
    - time: 0.6
      value: {fileID: 21300000, guid: 4eda7a007cdc87648856f4f37bb23546, type: 3}
    - time: 0.7
      value: {fileID: 21300000, guid: f92e5aced7ddc2a4da8924e0985c5445, type: 3}
    - time: 0.8
      value: {fileID: 21300000, guid: 735693e975fd32b48bf4d7f1378f5a95, type: 3}
    - time: 0.9
      value: {fileID: 21300000, guid: b5301a09d4cf0df41ac43f68bfe3561b, type: 3}
    - time: 1
      value: {fileID: 21300000, guid: 5bf0c1e8272ca5a4fb54cb2023ab44f6, type: 3}
    - time: 1.1
      value: {fileID: 21300000, guid: 64df895f46bfb144884ad2aefd3beeb5, type: 3}
    - time: 1.2
      value: {fileID: 21300000, guid: 5659322198531894eb71759c92a3960f, type: 3}
    - time: 1.3
      value: {fileID: 21300000, guid: ca8f43e9bb0ffc94c97113e14b113ceb, type: 3}
    attribute: m_Sprite
    path: 
    classID: 212
    script: {fileID: 0}
  m_SampleRate: 10
  m_WrapMode: 0
  m_Bounds:
    m_Center: {x: 0, y: 0, z: 0}
    m_Extent: {x: 0, y: 0, z: 0}
  m_ClipBindingConstant:
    genericBindings:
    - serializedVersion: 2
      path: 0
      attribute: 0
      script: {fileID: 0}
      typeID: 212
      customType: 23
      isPPtrCurve: 1
    pptrCurveMapping:
    - {fileID: 21300000, guid: f39cbea4d912f5145873d12cc74bcdf2, type: 3}
    - {fileID: 21300000, guid: a908edeefb2cfe64791a9ec77a0d115b, type: 3}
    - {fileID: 21300000, guid: 88f248c6e332a6f419587be0b2d390fd, type: 3}
    - {fileID: 21300000, guid: 732f0c74df3616f42a79962a4673b607, type: 3}
    - {fileID: 21300000, guid: 3941cf32368302448abbc05684157872, type: 3}
    - {fileID: 21300000, guid: cf971dfdfe6a3bb42ac9f11c92f1b8d7, type: 3}
    - {fileID: 21300000, guid: 4eda7a007cdc87648856f4f37bb23546, type: 3}
    - {fileID: 21300000, guid: f92e5aced7ddc2a4da8924e0985c5445, type: 3}
    - {fileID: 21300000, guid: 735693e975fd32b48bf4d7f1378f5a95, type: 3}
    - {fileID: 21300000, guid: b5301a09d4cf0df41ac43f68bfe3561b, type: 3}
    - {fileID: 21300000, guid: 5bf0c1e8272ca5a4fb54cb2023ab44f6, type: 3}
    - {fileID: 21300000, guid: 64df895f46bfb144884ad2aefd3beeb5, type: 3}
    - {fileID: 21300000, guid: 5659322198531894eb71759c92a3960f, type: 3}
    - {fileID: 21300000, guid: ca8f43e9bb0ffc94c97113e14b113ceb, type: 3}
  m_AnimationClipSettings:
    serializedVersion: 2
    m_AdditiveReferencePoseClip: {fileID: 0}
    m_AdditiveReferencePoseTime: 0
    m_StartTime: 0
    m_StopTime: 1.4
    m_OrientationOffsetY: 0
    m_Level: 0
    m_CycleOffset: 0
    m_HasAdditiveReferencePose: 0
    m_LoopTime: 1
    m_LoopBlend: 0
    m_LoopBlendOrientation: 0
    m_LoopBlendPositionY: 0
    m_LoopBlendPositionXZ: 0
    m_KeepOriginalOrientation: 0
    m_KeepOriginalPositionY: 1
    m_KeepOriginalPositionXZ: 0
    m_HeightFromFeet: 0
    m_Mirror: 0
  m_EditorCurves: []
  m_EulerEditorCurves: []
  m_HasGenericRootTransform: 0
  m_HasMotionFloatCurves: 0
  m_Events: []
