%YAML 1.1
%TAG !u! tag:unity3d.com,2011:
--- !u!74 &7400000
AnimationClip:
  m_ObjectHideFlags: 0
  m_CorrespondingSourceObject: {fileID: 0}
  m_PrefabInstance: {fileID: 0}
  m_PrefabAsset: {fileID: 0}
  m_Name: Anim_TD_Biohazard_Walk
  serializedVersion: 6
  m_Legacy: 0
  m_Compressed: 0
  m_UseHighQualityCurve: 1
  m_RotationCurves: []
  m_CompressedRotationCurves: []
  m_EulerCurves: []
  m_PositionCurves: []
  m_ScaleCurves: []
  m_FloatCurves: []
  m_PPtrCurves:
  - curve:
    - time: 0
      value: {fileID: 21300000, guid: 74553a8e5b897a14f937f91e8080c922, type: 3}
    - time: 0.083333336
      value: {fileID: 21300000, guid: 993435e1af3fc9240a7328d447f52ddc, type: 3}
    - time: 0.16666667
      value: {fileID: 21300000, guid: 8767b944998557d47984d36a4d72c44c, type: 3}
    - time: 0.25
      value: {fileID: 21300000, guid: 6c061a6d3e33e6e4e8d5a67acdf1a4cc, type: 3}
    - time: 0.33333334
      value: {fileID: 21300000, guid: 3c56901b4996ccf4196e248a4a225b26, type: 3}
    - time: 0.41666666
      value: {fileID: 21300000, guid: 775bc5afb6b8a0249ab19e338551e50e, type: 3}
    - time: 0.5
      value: {fileID: 21300000, guid: cff49ed88d878fa4d8efef4a1dbec85f, type: 3}
    - time: 0.5833333
      value: {fileID: 21300000, guid: efd100fa895adcc46ae8c5999b0756e0, type: 3}
    attribute: m_Sprite
    path: 
    classID: 212
    script: {fileID: 0}
  m_SampleRate: 12
  m_WrapMode: 0
  m_Bounds:
    m_Center: {x: 0, y: 0, z: 0}
    m_Extent: {x: 0, y: 0, z: 0}
  m_ClipBindingConstant:
    genericBindings:
    - serializedVersion: 2
      path: 0
      attribute: 0
      script: {fileID: 0}
      typeID: 212
      customType: 23
      isPPtrCurve: 1
    pptrCurveMapping:
    - {fileID: 21300000, guid: 74553a8e5b897a14f937f91e8080c922, type: 3}
    - {fileID: 21300000, guid: 993435e1af3fc9240a7328d447f52ddc, type: 3}
    - {fileID: 21300000, guid: 8767b944998557d47984d36a4d72c44c, type: 3}
    - {fileID: 21300000, guid: 6c061a6d3e33e6e4e8d5a67acdf1a4cc, type: 3}
    - {fileID: 21300000, guid: 3c56901b4996ccf4196e248a4a225b26, type: 3}
    - {fileID: 21300000, guid: 775bc5afb6b8a0249ab19e338551e50e, type: 3}
    - {fileID: 21300000, guid: cff49ed88d878fa4d8efef4a1dbec85f, type: 3}
    - {fileID: 21300000, guid: efd100fa895adcc46ae8c5999b0756e0, type: 3}
  m_AnimationClipSettings:
    serializedVersion: 2
    m_AdditiveReferencePoseClip: {fileID: 0}
    m_AdditiveReferencePoseTime: 0
    m_StartTime: 0
    m_StopTime: 0.6666666
    m_OrientationOffsetY: 0
    m_Level: 0
    m_CycleOffset: 0
    m_HasAdditiveReferencePose: 0
    m_LoopTime: 1
    m_LoopBlend: 0
    m_LoopBlendOrientation: 0
    m_LoopBlendPositionY: 0
    m_LoopBlendPositionXZ: 0
    m_KeepOriginalOrientation: 0
    m_KeepOriginalPositionY: 1
    m_KeepOriginalPositionXZ: 0
    m_HeightFromFeet: 0
    m_Mirror: 0
  m_EditorCurves: []
  m_EulerEditorCurves: []
  m_HasGenericRootTransform: 0
  m_HasMotionFloatCurves: 0
  m_Events: []
