%YAML 1.1
%TAG !u! tag:unity3d.com,2011:
--- !u!74 &7400000
AnimationClip:
  m_ObjectHideFlags: 0
  m_CorrespondingSourceObject: {fileID: 0}
  m_PrefabInstance: {fileID: 0}
  m_PrefabAsset: {fileID: 0}
  m_Name: Anim_TD_Biohazard_Idle
  serializedVersion: 6
  m_Legacy: 0
  m_Compressed: 0
  m_UseHighQualityCurve: 1
  m_RotationCurves: []
  m_CompressedRotationCurves: []
  m_EulerCurves: []
  m_PositionCurves: []
  m_ScaleCurves: []
  m_FloatCurves: []
  m_PPtrCurves:
  - curve:
    - time: 0
      value: {fileID: 21300000, guid: 262a27a49b2223d4c8f9371eb422a43e, type: 3}
    - time: 0.07692308
      value: {fileID: 21300000, guid: f404460cdb397224992c8f4b76176413, type: 3}
    - time: 0.15384616
      value: {fileID: 21300000, guid: df572a49dd5553b4c824376883179674, type: 3}
    - time: 0.23076923
      value: {fileID: 21300000, guid: 882818caa4174524da6b909ffc63d3e5, type: 3}
    - time: 0.30769232
      value: {fileID: 21300000, guid: 87b599b6cab132a408d526db5264c0b7, type: 3}
    - time: 0.3846154
      value: {fileID: 21300000, guid: 6ac3e9f855310b24db2b8f4332e6c894, type: 3}
    - time: 0.46153846
      value: {fileID: 21300000, guid: efc788dbdacf806409151e4d517ca384, type: 3}
    - time: 0.53846157
      value: {fileID: 21300000, guid: 54ccf7d626b9dee49a71dda7962a5cf0, type: 3}
    - time: 0.61538464
      value: {fileID: 21300000, guid: c0fc00bb25fa122459738efeb1c46dca, type: 3}
    - time: 0.6923077
      value: {fileID: 21300000, guid: ba5a580ecb888f447a31749c8c8aae84, type: 3}
    - time: 0.7692308
      value: {fileID: 21300000, guid: 36f47838113c9b24a9b757a5a482556e, type: 3}
    - time: 0.84615386
      value: {fileID: 21300000, guid: 2072a3a98e94c6e40849e382a9cb1aa8, type: 3}
    - time: 0.9230769
      value: {fileID: 21300000, guid: 1b42d2d7c4b04e94daea102598396674, type: 3}
    - time: 1
      value: {fileID: 21300000, guid: 00050d654a6646c42b2ec7646249c7a4, type: 3}
    - time: 1.0769231
      value: {fileID: 21300000, guid: dca96420efc927449ba3c8610e48804a, type: 3}
    attribute: m_Sprite
    path: 
    classID: 212
    script: {fileID: 0}
  m_SampleRate: 13
  m_WrapMode: 0
  m_Bounds:
    m_Center: {x: 0, y: 0, z: 0}
    m_Extent: {x: 0, y: 0, z: 0}
  m_ClipBindingConstant:
    genericBindings:
    - serializedVersion: 2
      path: 0
      attribute: 0
      script: {fileID: 0}
      typeID: 212
      customType: 23
      isPPtrCurve: 1
    pptrCurveMapping:
    - {fileID: 21300000, guid: 262a27a49b2223d4c8f9371eb422a43e, type: 3}
    - {fileID: 21300000, guid: f404460cdb397224992c8f4b76176413, type: 3}
    - {fileID: 21300000, guid: df572a49dd5553b4c824376883179674, type: 3}
    - {fileID: 21300000, guid: 882818caa4174524da6b909ffc63d3e5, type: 3}
    - {fileID: 21300000, guid: 87b599b6cab132a408d526db5264c0b7, type: 3}
    - {fileID: 21300000, guid: 6ac3e9f855310b24db2b8f4332e6c894, type: 3}
    - {fileID: 21300000, guid: efc788dbdacf806409151e4d517ca384, type: 3}
    - {fileID: 21300000, guid: 54ccf7d626b9dee49a71dda7962a5cf0, type: 3}
    - {fileID: 21300000, guid: c0fc00bb25fa122459738efeb1c46dca, type: 3}
    - {fileID: 21300000, guid: ba5a580ecb888f447a31749c8c8aae84, type: 3}
    - {fileID: 21300000, guid: 36f47838113c9b24a9b757a5a482556e, type: 3}
    - {fileID: 21300000, guid: 2072a3a98e94c6e40849e382a9cb1aa8, type: 3}
    - {fileID: 21300000, guid: 1b42d2d7c4b04e94daea102598396674, type: 3}
    - {fileID: 21300000, guid: 00050d654a6646c42b2ec7646249c7a4, type: 3}
    - {fileID: 21300000, guid: dca96420efc927449ba3c8610e48804a, type: 3}
  m_AnimationClipSettings:
    serializedVersion: 2
    m_AdditiveReferencePoseClip: {fileID: 0}
    m_AdditiveReferencePoseTime: 0
    m_StartTime: 0
    m_StopTime: 1.1538463
    m_OrientationOffsetY: 0
    m_Level: 0
    m_CycleOffset: 0
    m_HasAdditiveReferencePose: 0
    m_LoopTime: 1
    m_LoopBlend: 0
    m_LoopBlendOrientation: 0
    m_LoopBlendPositionY: 0
    m_LoopBlendPositionXZ: 0
    m_KeepOriginalOrientation: 0
    m_KeepOriginalPositionY: 1
    m_KeepOriginalPositionXZ: 0
    m_HeightFromFeet: 0
    m_Mirror: 0
  m_EditorCurves: []
  m_EulerEditorCurves: []
  m_HasGenericRootTransform: 0
  m_HasMotionFloatCurves: 0
  m_Events: []
